{
  "name": "Flight School Scoring Content",
  "info": {},
  "instruments": [
    {
      "title": "Course Overview",
      "pages": [
        {
          "title": "Flight School Scoring",
          "last_page": false,
          "elements": [
            {
              "name": "FSS1OVR01",
              "text": "In this session you will learn a standard set of rules for scoring time delays and risk penalties made by a drone flying over a map.",
              "type": "file-html",
              "meta_data": {
                "fileName": "drone.html"
              },
              "required": false
            },
            {
              "name": "FSS1OVR02",
              "text": "Different rules for how scores are counted are possible by adjusting the score values shown in this course. These will be introduced later when needed.",
              "type": "para",
              "required": false
            },
            {
              "name": "FSS1OVR03",
              "text": "At the end there will be a short test about what you have learned.",
              "type": "para",
              "required": false
            },
            {
              "name": "FSS1OVR04",
              "text": "Press CONTINUE to go to the next page. ",
              "type": "para",
              "required": false
            }
          ]
        }
      ]
    },
    {
      "title": "Drone Missions",
      "pages": [
        {
          "title": "Many things can go wrong on a Mission",
          "last_page": false,
          "elements": [
            {
              "name": "FSS1MIS01",
              "text": "",
              "type": "file-html",
              "meta_data": {
                "fileName": "FSS_1_missions.html"
              },
              "required": false
            }
          ]
        }
      ]
    },
    {
      "title": "Craft Maneuvering Adds Time",
      "pages": [
        {
          "title": "",
          "last_page": false,
          "elements": [
            {
              "name": "FSS2FLY01",
              "text": "The time it takes to fly from the Starting Point of a mission to the Package Drop Point.  Straight and level is the least flying time.",
              "type": "file-html",
              "meta_data": {
                "fileName": "FSS_2_flying.html"
              },
              "required": false
            }
          ]
        }
      ]
    },
    {
      "title": "Hiker Walking, including Rivers and Hills, Adds Time",
      "pages": [
        {
          "title": "",
          "last_page": false,
          "elements": [
            {
              "name": "FSS3WLK01",
              "text": "",
              "type": "file-html",
              "meta_data": {
                "fileName": "FSS_3_walking.html"
              },
              "required": false
            }
          ]
        }
      ]
    },
    {
      "title": "Hiker Not Seeing Package Drop Adds Time",
      "pages": [
        {
          "title": "",
          "last_page": false,
          "elements": [
            {
              "name": "FSS4SEE01",
              "text": "",
              "type": "file-html",
              "meta_data": {
                "fileName": "FSS_4_seeing.html"
              },
              "required": false
            }
          ]
        }
      ]
    },
    {
      "title": "Drones risk hitting objects they fly near but not over",
      "pages": [
        {
          "title": "",
          "last_page": false,
          "elements": [
            {
              "name": "FSS5HT01",
              "text": "",
              "type": "file-html",
              "meta_data": {
                "fileName": "FSS_5_hitting.html"
              },
              "required": false
            }
          ]
        }
      ]
    },
     {
      "title": "Flying near obstacles the drone might hit adds penalty",
      "pages": [
        {
          "title": "",
          "last_page": false,
          "elements": [
            {
              "name": "FSS5HP01",
              "text": "",
              "type": "file-html",
              "meta_data": {
                "fileName": "FSS_5_hitting_penalty.html"
              },
              "required": false
            }
          ]
        }
      ]
    },
   {
      "title": "The higher the drop, the bigger the package landing zone",
      "pages": [
        {
          "title": "",
          "last_page": false,
          "elements": [
            {
              "name": "FSS6RCH01",
              "text": "There is a chance that a package drops out of reach depending on how high the drop.",
              "type": "file-html",
              "meta_data": {
                "fileName": "FSS_5_landing.html"
              },
              "required": false
            }
          ]
        }
      ]
    },
    {
      "title": "Tall Obstacles in Package Landing Zone Adds Penalty",
      "pages": [
        {
          "title": "",
          "last_page": false,
          "elements": [
            {
              "name": "FSS6RCH01",
              "text": "There is a chance that a package drops out of reach depending on how high the drop. Penalty for a package landing out of reach (inaccessible) is based on 100 Points",
              "type": "file-html",
              "meta_data": {
                "fileName": "FSS_6_reaching.html"
              },
              "required": false
            }
          ]
        }
      ]
    },
    {
      "title": "Towers in Landing Zone adds Penalty",
      "pages": [
        {
          "title": "",
          "last_page": false,
          "elements": [
            {
              "name": "FSS7DMG01",
              "text": "There is a chance that a package gets damaged depending on how big the landing zone",
              "type": "file-html",
              "meta_data": {
                "fileName": "FSS_7_damaging.html"
              },
              "required": false
            }
          ]
        }
      ]
    },
    {
      "title": "Drone Crashing or Package Not Dropped adds Penalty",
      "pages": [
        {
          "title": "",
          "last_page": false,
          "elements": [
            {
              "name": "FSS8CRS01",
              "text": "Special Penalties for things going wrong on Mission: 100 Points",
              "type": "file-html",
              "meta_data": {
                "fileName": "FSS_8_crashing.html"
              },
              "required": false
            }
          ]
        }
      ]
    },
    {
      "title": "Comparing Drones Flying the Same Mission",
      "pages": [
        {
          "title": "",
          "last_page": false,
          "elements": [
            {
              "name": "FSS9CMP01",
              "text": "There are three outcomes: Win, Lose, or Draw. Any Drone that takes longer than the Mission time limit can not win. For Drones under the time limit, the Drone with the lowest penalty wins.",
              "type": "para",
              "required": false
            },
            {
              "name": "FSS9CMP02",
              "text": "",
              "type": "file-html",
              "meta_data": {
                "fileName": "FSS_9_comparing.html"
              },
              "required": false
            }
          ]
        }
      ]
    },
    {
      "title": "Flight School Scoring",
      "pages": [
        {
          "title": "",
          "last_page": true,
          "elements": [
            {
              "name": "FSS9END01",
              "text": "This has been a course to teach a Standard Set of Scoring Rules",
              "type": "para",
              "required": false
            },
            {
              "name": "FSS9END02",
              "text": "Different rules for how scores are counted are possible by changing the score values shown in this course.\nThese will be introduced later when needed.",
              "type": "para",
              "required": false
            },
            {
              "name": "FSS9END03",
              "text": "There will now be a short quiz to conclude this course.",
              "type": "para",
              "required": false
            }
          ]
        }
      ]
    }
  ]
}



