{
  "name": "P3 Trust",
  "info": {},
  "instruments": [
    {
      "title": "Please give us your feedback about these Drones you have been studying",
      "pages": [
        {
          "title": "",
          "last_page": false,
          "elements": [
            {
              "name": "P3E67XTRIF01Q",
              "text": "I am confident in the Explanation Interface. I feel that it works well.",
              "type": "multiple_choice",
              "choices": [
                "5: I agree strongly",
                "4: I agree somewhat ",
                "3: I'm neutral about it",
                "2: I disagree somewhat ",
                "1: I disagree strongly"
              ],
              "required": true
            },
            {
              "name": "P3E67XTRIF02Q",
              "text": "The outputs of the Explanation Interface are very predictable.",
              "type": "multiple_choice",
              "choices": [
                "5: I agree strongly",
                "4: I agree somewhat ",
                "3: I'm neutral about it",
                "2: I disagree somewhat ",
                "1: I disagree strongly"
              ],
              "required": true
            },
            {
              "name": "P3E67XTRIF03SQ",
              "text": "The Explanation Interface is very reliable. I can count on it to be correct all the time.",
              "type": "multiple_choice",
              "choices": [
                "5: I agree strongly",
                "4: I agree somewhat ",
                "3: I'm neutral about it",
                "2: I disagree somewhat ",
                "1: I disagree strongly"
              ],
              "required": true
            },
            {
              "name": "P3E67XTRIF04EQ",
              "text": "I feel safe that when I rely on the Explanation Interface I will get the right answers.",
              "type": "multiple_choice",
              "choices": [
                "5: I agree strongly",
                "4: I agree somewhat ",
                "3: I'm neutral about it",
                "2: I disagree somewhat ",
                "1: I disagree strongly"
              ],
              "required": true
            },
            {
              "name": "P3E67XTRIF05EQ",
              "text": "The Explanation Interface is efficient in that it works very quickly.",
              "type": "multiple_choice",
              "choices": [
                "5: I agree strongly",
                "4: I agree somewhat ",
                "3: I'm neutral about it",
                "2: I disagree somewhat ",
                "1: I disagree strongly"
              ],
              "required": true
            },
            {
              "name": "P3E67XTRIF06Q",
              "text": "I am wary of the Explanation Interface.",
              "type": "multiple_choice",
              "choices": [
                "5: I agree strongly",
                "4: I agree somewhat ",
                "3: I'm neutral about it",
                "2: I disagree somewhat ",
                "1: I disagree strongly"
              ],
              "required": true
            },
            {
              "name": "P3E67XTRIF07Q",
              "text": "The Explanation Interface can perform the task better than a novice human user.",
              "type": "multiple_choice",
              "choices": [
                "5: I agree strongly",
                "4: I agree somewhat ",
                "3: I'm neutral about it",
                "2: I disagree somewhat ",
                "1: I disagree strongly"
              ],
              "required": true
            },
            {
              "name": "P3E67XTRIF08Q",
              "text": "I like using the system for decision making.",
              "type": "multiple_choice",
              "choices": [
                "5: I agree strongly",
                "4: I agree somewhat ",
                "3: I'm neutral about it",
                "2: I disagree somewhat ",
                "1: I disagree strongly"
              ],
              "required": true
            },
            {
              "name": "P3E67XTRDR01Q",
              "text": "This explanation of how the drones fly has sufficient detail.",
              "type": "multiple_choice",
              "choices": [
                "5: I agree strongly",
                "4: I agree somewhat ",
                "3: I'm neutral about it",
                "2: I disagree somewhat ",
                "1: I disagree strongly"
              ],
              "required": true
            },
            {
              "name": "P3E67XTRDR02Q",
              "text": "The outputs of the drones are very predictable.",
              "type": "multiple_choice",
              "choices": [
                "5: I agree strongly",
                "4: I agree somewhat ",
                "3: I'm neutral about it",
                "2: I disagree somewhat ",
                "1: I disagree strongly"
              ],
              "required": true
            },
            {
              "name": "P3E67XTRDR03Q",
              "text": "I could choose the right drone without the interface in a future mission.",
              "type": "multiple_choice",
              "choices": [
                "5: I agree strongly",
                "4: I agree somewhat ",
                "3: I'm neutral about it",
                "2: I disagree somewhat ",
                "1: I disagree strongly"
              ],
              "required": true
            },
            {
              "name": "P3E67XTRDR04Q",
              "text": "I could choose the right drone without the Explanation Interface in a future mission.",
              "type": "multiple_choice",
              "choices": [
                "5: I agree strongly",
                "4: I agree somewhat ",
                "3: I'm neutral about it",
                "2: I disagree somewhat ",
                "1: I disagree strongly"
              ],
              "required": true
            }
          ]
        }
      ]
    }
  ]
}