﻿Page Name,Question ID,Question Type,Question Text
Mission 1 of 30,P3E8A01QX,Prediction,Which plan wins?
Mission 1 of 30,P3E8A01CQX,Confidence,In this mission how confident are you that you picked the correct answer?
Mission 1: Drone 1's plan is better ,P3E8A01ACSQX,Understandinng,True or False: Drone 1's plan flies next to MORE obstacles that create risk to the DRONE CRASHING than Drone 2's plan?
Mission 1: About these two Drones,P3E8A01ABTQX,Understandinng,Which Drone's plan has more risk to dropping the PACKAGE?
Mission 2 of 30,P3E8A02QX,Prediction,Which plan wins?
Mission 2 of 30,P3E8A02CQX,Confidence,In this mission how confident are you that you picked the correct answer?
Mission 2: Drone 1's plan is better.,P3E8A02APRQX,Understandinng,True or False: Drone 1's plan has FEWER obstacles that create risk to the package than Drone 2's plan?
Mission 2: About these two Drones,P3E8A02ABTQX,Understandinng,Which Drone's plan has more risk to dropping the PACKAGE?
Mission 3 of 30,P3E8A03QX,Prediction,Which plan wins?
Mission 3 of 30,P3E8A03CQX,Confidence,In this mission how confident are you that you picked the correct answer?
Mission 3: The drones tie,P3E8A03ACSQX,Understandinng,True or False: Drone 1's plan flies next to MORE obstacles that create risk to the DRONE CRASHING than Drone 2's plan?
Mission 4 of 30,P3E8A04QX,Prediction,Which plan wins?
Mission 4 of 30,P3E8A04CQX,Confidence,In this mission how confident are you that you picked the correct answer?
Mission 4: Drone 1's plan is better.,P3E8A04APRQX,Understandinng,True or False: Drone 1's plan has FEWER obstacles that create risk to the package than Drone 2's plan?
Mission 4: About these two Drones,P3E8A04ABTQX,Understandinng,Which Drone's plan has more risk to dropping the PACKAGE?
Mission 5 of 30,P3E8A05QX,Prediction,Which plan wins?
Mission 5 of 30,P3E8A05QX,Confidence,In this mission how confident are you that you picked the correct answer?
Mission 5: Drone 2's plan is better,P3E8A05APRQX,Understandinng,True or False: Drone 1's plan has FEWER obstacles that create risk to the PACKAGE than Drone 2's plan?
Mission 5: About these two Drones,P3E8A05ABTQX,Understandinng,Which Drone's plan has more risk to dropping the PACKAGE?
Mission 6 of 30,P3E8A06QX,Prediction,Which plan wins?
Mission 6 of 30,P3E8A06CQX,Confidence,In this mission how confident are you that you picked the correct answer?
Mission 6: Drone 2's plan is better,P3E8A06APRQX,Understandinng,True or False: Drone 1's plan has FEWER obstacles that create risk to the PACKAGE than Drone 2's plan?
Mission 6: About these two Drones,P3E8A06ABTQX,Understandinng,Which Drone's plan has more risk to dropping the PACKAGE?
Mission 7 of 30,P3E8A07QX,Prediction,Which plan wins?
Mission 7 of 30,P3E8A07CQX,Confidence,In this mission how confident are you that you picked the correct answer?
Mission 7: Drone 1's plan is better,P3E8A07APRQX,Understandinng,True or False: Drone 1's plan has FEWER obstacles that create risk to the package than Drone 2's plan?
Mission 7: About these two Drones,P3E8A07ABTQX,Understandinng,Which Drone's plan has more risk to dropping the PACKAGE?
Mission 8 of 30,P3E8A08QX,Prediction,Which plan wins?
Mission 8 of 30,P3E8A08CQX,Confidence,In this mission how confident are you that you picked the correct answer?
Mission 8: Drone 2's plan is better,P3E8A08A01QX,Understandinng,True or False: Drone 1's plan has FEWER obstacles that create risk to the PACKAGE than Drone 2's plan?
Mission 8: About these two Drones,P3E8A08ABTQX,Understandinng,Which Drone's plan has more risk to dropping the PACKAGE?
Mission 9 of 30,P3E8A09QX,Prediction,Which plan wins?
Mission 9 of 30,P3E8A09CQX,Confidence,In this mission how confident are you that you picked the correct answer?
Mission 9: Drone 1's plan is better,P3E8A09A01QX,Understandinng,True or False: Drone 1's plan flies next to MORE obstacles that create risk to the DRONE CRASHING than Drone 2's plan?
Mission 9: About these two Drones,P3E8A09ABTQX,Understandinng,Which Drone's plan has more risk to the Package being damaged or dropped out of reach of the Hiker?
Mission 10 of 30,P3E8A10QX,Prediction,Which plan wins?
Mission 10 of 30,P3E8A10CQX,Confidence,In this mission how confident are you that you picked the correct answer?
Mission 10: Drone 2's plan is better,P3E8A10A01QX,Understandinng,True or False: Drone 1's plan has FEWER obstacles that create risk to the package than Drone 2's plan?
Mission 10: About these two Drones,P3E8A10ABTQX,Understandinng,Which Drone's plan has more risk to dropping the PACKAGE?
Mission 11 of 30,P3E8A11QX,Prediction,Which plan wins?
Mission 11 of 30,P3E8A11CQX,Confidence,In this mission how confident are you that you picked the correct answer?
Mission 11: Drone 1's plan is better,P3E8A11A01QX,Understandinng,True or False: Drone 1's plan has FEWER obstacles that create risk to the PACKAGE than Drone 2's plan?
Mission 11: About these two Drones,P3E8A11ABTQX,Understandinng,Which Drone's plan has more risk to dropping the PACKAGE?
Mission 12 of 30,P3E8A12QX,Prediction,Which plan wins?
Mission 12 of 30,P3E8A12CQX,Confidence,In this mission how confident are you that you picked the correct answer?
Mission 12: Drone 2's plan is better,P3E8A12A01QX,Understandinng,True or False: Drone 1's plan has FEWER obstacles that create risk to the package than Drone 2's plan?
Mission 12: About these two Drones,P3E8A12ABTQX,Understandinng,Which Drone's plan has more risk to dropping the PACKAGE?
Mission 13 of 30,P3E8A13QX,Prediction,Which plan wins?
Mission 13 of 30,P3E8A13CQX,Confidence,In this mission how confident are you that you picked the correct answer?
Mission 13: Drone 1's plan is better,P3E8A13A01QX,Understandinng,True or False: Drone 1's plan has FEWER obstacles that create risk to the package than Drone 2's plan?
Mission 13: About these two Drones,P3E8A13ABTQX,Understandinng,Which Drone's plan has more risk to dropping the PACKAGE?
Mission 14 of 30,P3E8A14QX,Prediction,Which plan wins?
Mission 14 of 30,P3E8A14CQX,Confidence,In this mission how confident are you that you picked the correct answer?
Mission 14: Drone 2's plan is better,P3E8A14A01QX,Understandinng,True or False: Drone 1's plan flies next to MORE obstacles that create risk to the DRONE CRASHING than Drone 2's plan?
Mission 14: About these two Drones,P3E8A14ABTQX,Understandinng,Which Drone's plan has more risk to dropping the PACKAGE?
Mission 15 of 30,P3E8A15QX,Prediction,Which plan wins?
Mission 15 of 30,P3E8A15CQX,Confidence,In this mission how confident are you that you picked the correct answer?
Mission 15: Drone 2's plan is better,P3E8A15A01QX,Understandinng,True or False: Drone 1's plan has FEWER obstacles that create risk to the PACKAGE than Drone 2's plan?
Mission 15: About these two Drones,P3E8A15ABTQX,Understandinng,Which Drone's plan has more risk to dropping the PACKAGE?
Mission 16 of 30,P3E8A16QX,Prediction,Which plan wins?
Mission 16 of 30,P3E8A16CQX,Confidence,In this mission how confident are you that you picked the correct answer?
Mission 16: Drone 1's plan is better,P3E8A16A01QX,Understandinng,True or False: Drone 1's plan has FEWER obstacles that create risk to the package than Drone 2's plan?
Mission 16: About these two Drones,P3E8A16ABTQX,Understandinng,Which Drone's plan has more risk to dropping the PACKAGE?
Mission 17 of 30,P3E8A17QX,Prediction,Which plan wins?
Mission 17 of 30,P3E8A17CQX,Confidence,In this mission how confident are you that you picked the correct answer?
Mission 17: Drone 2's plan is better,P3E8A17A01QX,Understandinng,True or False: Drone 1's plan has FEWER obstacles that create risk to the package than Drone 2's plan?
Mission 17: About these two Drones,P3E8A17ABTQX,Understandinng,Which Drone's plan has more risk to dropping the PACKAGE?
Mission 18 of 30,P3E8A18QX,Prediction,Which plan wins?
Mission 18 of 30,P3E8A18CQX,Confidence,In this mission how confident are you that you picked the correct answer?
Mission 18: Drone 1's plan is better,P3E8A18A01QX,Understandinng,True or False: Drone 1's plan has FEWER obstacles that create risk to the PACKAGE than Drone 2's plan?
Mission 18: About these two Drones,P3E8A18ABTQX,Understandinng,Which Drone's plan has more risk to dropping the PACKAGE?
Mission 19 of 30,P3E8A19QX,Prediction,Which plan wins?
Mission 19 of 30,P3E8A19CQX,Confidence,In this mission how confident are you that you picked the correct answer?
Mission 19: Drone 2's plan is better,P3E8A19A01QX,Understandinng,True or False: Drone 1's plan flies next to MORE obstacles that create risk to the DRONE CRASHING than Drone 2's plan?
Mission 19: About these two Drones,P3E8A19ABTQX,Understandinng,Which Drone's plan has more risk to dropping the PACKAGE?
Mission 20 of 30,P3E8A20QX,Prediction,Which plan wins?
Mission 20 of 30,P3E8A20CQX,Confidence,In this mission how confident are you that you picked the correct answer?
Mission 20: Drone 2's plan is better,P3E8A20A01QX,Understandinng,True or False: Drone 1's plan has FEWER obstacles that create risk to the package than Drone 2's plan?
Mission 20: About these two Drones,P3E8A20ABTQX,Understandinng,Which Drone's plan has more risk to dropping the PACKAGE?
Mission 21 of 30,P3E8A21QX,Prediction,Which plan wins?
Mission 21 of 30,P3E8A21CQX,Confidence,In this mission how confident are you that you picked the correct answer?
Mission 21: Drone 1's plan is better,P3E8A21A01QX,Understandinng,True or False: Drone 1's plan flies next to MORE obstacles that create risk to the DRONE CRASHING than Drone 2's plan?
Mission 21: About these two Drones,P3E8A21ABTQX,Understandinng,Which Drone's plan has more risk to dropping the PACKAGE?
Mission 22 of 30,P3E8A22QX,Prediction,Which plan wins?
Mission 22 of 30,P3E8A22CQX,Confidence,In this mission how confident are you that you picked the correct answer?
Mission 22: Drone 1's plan is better,P3E8A22A01QX,Understandinng,True or False: Drone 1's plan has FEWER obstacles that create risk to the package than Drone 2's plan?
Mission 22: About these two Drones,P3E8A22ABTQX,Understandinng,Which Drone's plan has more risk to dropping the PACKAGE?
Mission 23 of 30,P3E8A23QX,Prediction,Which plan wins?
Mission 23 of 30,P3E8A23CQX,Confidence,In this mission how confident are you that you picked the correct answer?
Mission 23: Drone 2's plan is better,P3E8A23A01QX,Understandinng,True or False: Drone 1's plan has FEWER obstacles that create risk to the package than Drone 2's plan?
Mission 23: About these two Drones,P3E8A23ABTQX,Understandinng,Which Drone's plan has more risk to dropping the PACKAGE?
Mission 24 of 30,P3E8A24QX,Prediction,Which plan wins?
Mission 24 of 30,P3E8A24CQX,Confidence,In this mission how confident are you that you picked the correct answer?
Mission 24: Drone 1's plan is better,P3E8A24A01QX,Understandinng,True or False: Drone 1's plan flies next to MORE obstacles that create risk to the DRONE CRASHING than Drone 2's plan?
Mission 24: About these two Drones,P3E8A24ABTQX,Understandinng,Which Drone's plan has more risk to dropping the PACKAGE?
Mission 25 of 30,P3E8A25QX,Prediction,Which plan wins?
Mission 25 of 30,P3E8A25CQX,Confidence,In this mission how confident are you that you picked the correct answer?
Mission 25: Drone 2's plan is better,P3E8A25A01QX,Understandinng,True or False: Drone 1's plan has FEWER obstacles that create risk to the package than Drone 2's plan?
Mission 25: About these two Drones,P3E8A25ABTQX,Understandinng,Which Drone's plan has more risk to the Package being damaged or dropped out of reach of the Hiker?
Mission 26 of 30,P3E8A26QX,Prediction,Which plan wins?
Mission 26 of 30,P3E8A26CQX,Confidence,In this mission how confident are you that you picked the correct answer?
Mission 26: Drone 1's plan is better,P3E8A26A01QX,Understandinng,True or False: Drone 1's plan has FEWER obstacles that create risk to the PACKAGE than Drone 2's plan?
Mission 26: About these two Drones,P3E8A26ABTQX,Understandinng,Which Drone's plan has more risk to dropping the PACKAGE?
Mission 27 of 30,P3E8A27QX,Prediction,Which plan wins?
Mission 27 of 30,P3E8A27CQX,Confidence,In this mission how confident are you that you picked the correct answer?
Mission 27: Drone 1's plan is better,P3E8A27A01QX,Understandinng,True or False: Drone 1's plan flies next to MORE obstacles that create risk to the DRONE CRASHING than Drone 2's plan?
Mission 27: About these two Drones,P3E8A27ABTQX,Understandinng,Which Drone's plan has more risk to dropping the PACKAGE?
Mission 28 of 30,P3E8A28QX,Prediction,Which plan wins?
Mission 28 of 30,P3E8A28CQX,Confidence,In this mission how confident are you that you picked the correct answer?
Mission 28: Drone 2's plan is better,P3E8A28A01QX,Understandinng,True or False: Drone 1's plan has FEWER obstacles that create risk to the PACKAGE than Drone 2's plan?
Mission 28: About these two Drones,P3E8A28ABTQX,Understandinng,Which Drone's plan has more risk to dropping the PACKAGE?
Mission 29 of 30,P3E8A29QX,Prediction,Which plan wins?
Mission 29 of 30,P3E8A29CQX,Confidence,In this mission how confident are you that you picked the correct answer?
Mission 29: Drone 2's plan is better,P3E8A29A01QX,Understandinng,True or False: Drone 1's plan has FEWER obstacles that create risk to the package than Drone 2's plan?
Mission 29: About these two Drones,P3E8A29ABTQX,Understandinng,Which Drone's plan has more risk to the Package being damaged or dropped out of reach of the Hiker?
Mission 30 of 30,P3E8A30QX,Prediction,Which plan wins?
Mission 30 of 30,P3E8A30CQX,Confidence,In this mission how confident are you that you picked the correct answer?
Mission 30: Drone 1's plan is better,P3E8A30A01QX,Understandinng,True or False: Drone 1's plan has FEWER obstacles that create risk to the package than Drone 2's plan?
Mission 30: About these two Drones,P3E8A30ABTQX,Understandinng,Which Drone's plan has more risk to dropping the PACKAGE?