{
    "name": "T1.Include",
    "info": {},
    "instruments": [
        {
        "name": "inst_1",
        "title": "T1.Include - Inst1",
        "pages": [
           {"title": "",
                "last_page": true,
                "elements": [
                    {"name":"", "text": "", "type": "file-html",  "meta_data":{"fileName": "t1.6.html"}, "required": true},
                    {"name":"T1.1", "text": "True to jump to Inst3, False to fall through.", "type": "multiple_choice", "choices": ["True", "False"], "required": true}
                ]
            }
            ],
        "branch_logic": [{"condition": "'{T1.1}'=='True'", "target": "inst_3"}]
        },
        {
        "title": "T1.Include - Inst2",
        "name": "inst_2",
        "pages": [
            {"title": "",
                "elements": [
                    {"name":"T1.2", "text": "True jump to Inst1, False fall through?", "type": "multiple_choice", "choices": ["True", "False"], "required": true}
                ]
            }
            ],
          "branch_logic": [{"condition": "'{T1.2}'=='True'", "target": "inst_1"}]
        },
        {
        "title": "T1.Include - Inst3",
        "name": "inst_3",
        "pages": [
            {"title": "",
                "elements": [
                    {"name":"T1.3", "text": "A to Inst1, B to Inst2, C next", "type": "multiple_choice", "choices": ["A", "B", "C"], "required": true}
              ]
            }
            ],
        "branch_logic": [{"condition": "'{T1.3}'=='A'", "target": "inst_1"}, {"condition": "'{T1.3}'=='B'", "target": "inst_2"}]
        }
    ]
}