{
  "name": "Flight School Basics Content Intro",
  "info": {
    "popups_required": true,
    "show_score": true
  },
  "instruments": [
    {
      "title": "Introduction",
      "pages": [
        {
          "title": "Search and Rescue using a Smart Drone",
          "last_page": false,
          "elements": [
            {
              "name": "KASAR01",
              "text": "In this Study you will see images of a drone flying over a map.  These drones fly like airplanes, not helicopters or quadcopters. They are called fixed wing drones, and use artificial intelligence to fly missions. They look like the drone in the picture below.",
              "type": "file-html",
              "meta_data": {
                "fileName": "drone.html"
              },
              "required": false
            },
            {
              "name": "KSSAR02",
              "text": "We will first begin by showing you some basic information about the two Drones and the missions you will see them planning.",
              "type": "para",
              "required": false
            },
            {
              "name": "KSSAR03",
              "type": "para",
              "text": "We will then ask you to compare how these two drones do on some specific missions.",
              "required": false
            },
            {
              "name": "KSSAR06",
              "text": "Press CONTINUE to go to begin learning about these Drones.",
              "type": "para",
              "required": false
            }
          ]
        }
      ]
    },
    {
      "title": "Missions",
      "pages": [
        {
          "title": "The goal of each mission is to deliver supplies to a hiker in need",
          "last_page": false,
          "elements": [
            {
              "name": "KSMIS01",
              "text": "",
              "type": "file-html",
              "meta_data": {
                "fileName": "mission.html"
              },
              "required": false
            }
          ]
        }
      ]
    },
    {
      "title": "Mission Problems",
      "pages": [
        {
          "title": "Missions are compared by the time and risks the mission plan takes",
          "last_page": false,
          "elements": [
            {
              "name": "KSPRB01",
              "text": "Time getting the package to the Hiker must be under the Mission Time Limit",
              "type": "file-html",
              "meta_data": {
                "fileName": "problems.html"
              },
              "required": false
            }
          ]
        }
      ]
    },
    {
      "title": "Drones get penalty points for taking risks: Danger of drone crashing into obstacles",
      "pages": [
        {
          "title": "Flying within one Square of an obstacle adds risk, unless the Drone can fly above the obstacle",
          "last_page": false,
          "elements": [
            {
              "name": "KSCFT01",
              "text": "",
              "type": "file-html",
              "meta_data": {
                "fileName": "craft_risk.html"
              },
              "required": false
            }
          ]
        }
      ]
    },
    {
      "title": "Drones get penalty points for taking risks: Danger of dropping package on obstacles",
      "pages": [
        {
          "title": "Packages dropped from higher Altitude can fall over a larger area",
          "last_page": false,
          "elements": [
            {
              "name": "KSPKGR01",
              "text": "The bigger the package landing area, the more chance there is an obstacle below that can cause a problem",
              "type": "file-html",
              "meta_data": {
                "fileName": "package_risk.html"
              },
              "required": false
            }
          ]
        }
      ]
    },
    {
      "title": "Drones may differ from each other",
      "pages": [
        {
          "title": "",
          "last_page": false,
          "elements": [
            {
              "name": "FSS701",
              "text": "",
              "type": "file-html",
              "meta_data": {
                "fileName": "FSS_drones_differ.html"
              },
              "required": false
            }
          ]
        }
      ]
    },
    {
      "title": "Your task will be to compare the two Drones planning a mission",
      "pages": [
        {
          "title": "You will be asked to pick the Drone with the better plan",
          "last_page": false,
          "elements": [
            {
              "name": "KSCMP01",
              "text": "The same Drone 1 is always shown on the left. Drone 2 is always on the right.",
              "type": "para",
              "required": false
            },
            {
              "name": "KSCMP02",
              "text": "These same two drones will be used throughout this study",
              "type": "para",
              "required": false
            },
            {
              "name": "KSCMP03",
              "text": "TIP: The map viewer is interactive. For example, you can click on the Legend to find out about all the map symbols.",
              "type": "file-html",
              "meta_data": {
                "fileName": "compare_tip.html"
              },
              "required": false
            },
            {
              "name": "KSCMP04",
              "text": "TRY Clicking on the Legend. You will see, for example, that Forests stand at Altitude 1 above the grass. This would mean that the Drone would need to fly at least at Altitude 2 to not crash into any forest directly below it.",
              "type": "para",
              "required": false
            },
            {
              "name": "KSCMPK",
              "text": "Your Next Mission",
              "type": "side_window",
              "meta_data": {
                "rightSidePct": 50,
                "url": "http://0.0.0.0:8008/?default_load=57010167&user_mode=apercu_compare",
                "tab_name": "Help"
              },
              "required": false
            }
          ]
        }
      ]
    },
    {
      "title": "Mission Planning",
      "pages": [
        {
          "title": "",
          "last_page": false,
          "elements": [
            {
              "name": "KSPRB01",
              "text": "When planning a mission, a Drone needs to plan how long it takes to get to the Package Drop Point, and how long it thinks the Hiker will take getting to the dropped Package",
              "type": "file-html",
              "meta_data": {
                "fileName": "time.html"
              },
              "required": false
            }
          ]
        }
      ]
    },
    {
      "title": "Winning",
      "pages": [
        {
          "title": "Rules for Winning",
          "last_page": false,
          "elements": [
            {
              "name": "KSWINL_Q",
              "text": "Do you see the new tab called 'Winning Tab'?",
              "type": "multiple_choice",
              "choices": [
                "True",
                "False"
              ],
              "required": true
            },
            {
              "name": "KSWIN01",
              "text": "If you do not see the new tab, please try to allow popups in your web browser. How you do this will vary depending on which browser you use. For example, the Chrome browser provides Setting for Privacy and Security to allow popups.",
              "type": "para",
              "required": false
            },
            {
              "name": "KSWIN03",
              "text": "In any case, you may proceed with the study by pressing 'CONTINUE'",
              "type": "file-html",
              "meta_data": {
                "fileName": "winning.html"
              },
              "required": false
            },
            {
              "name": "KSWIN04",
              "text": "Flight School Controls",
              "type": "pop_up",
              "meta_data": {
                "url": "/static/klarigo_school_content_0_intro/winning_popup.html",
                "tab_name": "Winning"
              },
              "required": false
            }
          ]
        }
      ]
    }
  ]
}



