
{
  "name": "Behavior Training Set 077none",
  "info": {},
  "instruments": [
    {
      "title": "Your next mission",
      "pages": [
        {
          "title": "Please examine Routes in the Klarigo tab",
          "elements": [
            {
              "name": "BT_InstRemind",
              "text": "Please look at two routes this drone is considering in the Klarigo tab.",
              "type": "para",
              "required": false
            },
            {
              "name": "BT_InstRemind",
              "text": "For each route, please find the mission start, end, hiker, routes, and penalties for each route.",
              "type": "para",
              "required": false
            },
            {
              "name": "BT_Example_astar_077_none_Q",
              "text": "Which route has the lower penalty number?",
              "type": "multiple_choice",
              "choices": [
                "Route 1",
                "Route 2",
                "Both routes have the same penalty"
              ],
              "required": true
            },
            {
              "name": "BT_InstRemind",
              "text": "Ask yourself why the drone thinks that route should get a lower penalty.",
              "type": "para",
              "required": false
            },
            {
              "name": "BT_Show_astar_077_none",
              "text": "",
              "type": "pop_up",
              "meta_data": {
                "url": "https://klarigo.herokuapp.com/?default_load=20214077&user_mode=apercu_none"
              },
              "required": false
            }
          ]
        }
      ]
    }
  ]
}
