{
  "name": "Search and Rescue Study",
  "info": {},
  "instruments": [
    {
      "title": "consent",
      "type": "include",
      "study_dir": "consent"
    },
    {
      "title": "introduction",
      "type": "include",
      "study_dir": "P3_revealing_literacy_introduction"
    },
    {
      "title": "content",
      "type": "include",
      "study_dir": "P3_revealing_literacy_M1_heroku"
    },
    {
      "title": "content",
      "type": "include",
      "study_dir": "P3_revealing_literacy_M1_MMI_heroku"
    },
    {
      "title": "survey",
      "type": "include",
      "study_dir": "FSB_postsurvey"
    },
    {
      "title": "complete",
      "type": "include",
      "study_dir": "complete"
    }
  ]
}



