{
  "name": "Search and Rescue Study",
  "info": {},
  "instruments": [
    {
      "title": "consent",
      "type": "include",
      "study_dir": "consent"
    },
    {
      "title": "introduction",
      "type": "include",
      "study_dir": "klarigo_school_content_0_intro_heroku"
    },
    {
      "title": "example",
      "type": "include",
      "study_dir": "klarigo_school_without_explanation_example_heroku"
    },
    {
      "title": "content",
      "type": "include",
      "study_dir": "P3S_pilot_sequence_without_explanation_heroku"
    },
    {
      "title": "survey",
      "type": "include",
      "study_dir": "FSB_postsurvey"
    },
    {
      "title": "complete",
      "type": "include",
      "study_dir": "complete"
    }
  ]
}

