{
  "name": "Study Sequence Content",
  "info": {},
  "instruments": [
    {
      "title": "Mission Planning",
      "pages": [
        {
          "title": "",
          "last_page": false,
          "elements": [
            {
              "name": "P3PI0101",
              "text": "We will be showing you a number of pairs of maps to consider and ask you which Drone has a better plan for the Mission.",
              "type": "para",
              "required": false
            },
            {
              "name": "P3PI04",
              "text": "One more IMPORTANT thing about these missions:",
              "type": "para",
              "required": false
            },
            {
              "name": "P3PI05",
              "text": "In these missions the Hiker is unusually fit and is able to walk faster and farther than most hikers.",
              "type": "para",
              "required": false
            },
            {
              "name": "P3PI06",
              "text": "Each drone might or might not know this fact or be able to adjust to this situation.",
              "type": "para",
              "required": false
            },
            {
              "name": "P3PI07",
              "text": "TIP: You can think of each Mission as a lesson about these same two Drones, Drone 1 and Drone 2. Even if you get a question wrong, an explanation will be given to help you understand the differences between these two drones. Feel free to write information down or remember and use it from Mission to Mission.",
              "type": "para",
              "required": false
            }
          ]
        },
        {
          "title": "",
          "last_page": false,
          "elements": [
            {
              "name": "P3PI0101",
              "text": "Here are the first of maps we want you to consider.",
              "type": "para",
              "required": false
            },
            {
              "name": "P3PI0102",
              "text": "The time limit for the Hiker to retrieve the package is: 120 Minutes",
              "type": "para",
              "required": false
            },
            {
              "name": "P3PI0103",
              "text": "The penalty limit for the mission is: 100 Points",
              "type": "para",
              "required": false
            },
            {
              "name": "P3PI0104",
              "text": "Remember that this is a fit and very capable Hiker",
              "type": "para",
              "required": false
            },
            {
              "name": "P3PI0106",
              "text": "TIP: These maps are interactive. You can click and drag on them to reveal more information. Try moving the mission time control below the maps.",
              "type": "para",
              "required": false
            },
            {
              "name": "P3PI0106",
              "text": "Press CONTINUE when you are ready to answer some questions about these drones.",
              "type": "para",
              "required": false
            },
            {
              "name": "P3PI01QK",
              "text": "Your First Mission",
              "type": "side_window",
              "meta_data": {
                "rightSidePct": 50,
                "url": "https://klarigo.herokuapp.com/?default_load=990467&user_mode=apercu_compare",
                "tab_name": "Help"
              },
              "required": false
            }
          ]
        }
      ]
    },
    {
      "title": "Mission 1 of 20",
      "pages": [
        {
          "title": "Time limit for this above average Hiker: 120 Minutes. Penalty limit: 100 points",
          "last_page": false,
          "elements": [
            {
              "name": "P3P01Q",
              "text": "Look at these two Flight plans to the right. Which plan wins?",
              "type": "multiple_choice",
              "choices": [
                "Drone 1 wins",
                "Drone 2 wins",
                "It is a tie "
              ],
              "required": true
            },
            {
              "name": "P3P01CQ",
              "text": "In this mission, how confident are you that you picked the correct answer?",
              "type": "slider",
              "meta_data": {
                "showValue": true,
                "min": 0,
                "max": 100,
                "startValue": 50,
                "valueChar": "%",
                "labels": {
                  "0": "Not confident at all",
                  "100": "Totally confident"
                },
                "required": true
              }
            },
            {
              "name": "P3P01QK",
              "text": "Your First Mission",
              "type": "side_window",
              "meta_data": {
                "rightSidePct": 50,
                "url": "https://klarigo.herokuapp.com/?default_load=990467&user_mode=apercu_compare",
                "tab_name": "Help"
              },
              "required": false
            }
          ]
        }
      ]
    },
    {
      "title": "Mission 1: The drones tie",
      "pages": [
        {
          "title": "Time limit for this above average Hiker: 120 Minutes. Penalty limit: 100 points",
          "last_page": false,
          "elements": [
            {
              "name": "P3P02A01",
              "text": "TIP: You may interact with the information on the right. Try clicking the Craft Safety Checkbox",
              "type": "file-html",
              "meta_data": {
                "fileName": "tip.html"
              },
              "required": false
            },
            {
              "name": "P3P01A01Q",
              "text": "True or False: Drone 1’s plan has lower risk than Drone 2’s plan",
              "type": "multiple_choice",
              "choices": [
                "True",
                "False"
              ],
              "required": true
            },
            {
              "name": "P3P01AK",
              "text": "Your Next Mission",
              "type": "side_window",
              "meta_data": {
                "rightSidePct": 66,
                "url": "https://klarigo.herokuapp.com/?default_load=990467&user_mode=apercu_all",
                "tab_name": "Help"
              },
              "required": false
            }
          ]
        }
      ]
    },
    {
      "title": "Mission 2 of 20",
      "pages": [
        {
          "title": "Time limit for this above average Hiker: 120 Minutes. Penalty limit: 100 points",
          "last_page": false,
          "elements": [
            {
              "name": "P3P02Q",
              "text": "Which plan wins?",
              "type": "multiple_choice",
              "choices": [
                "Drone 1 wins",
                "Drone 2 wins",
                "It is a tie "
              ],
              "required": true
            },
            {
              "name": "P3P02CQ",
              "text": "In this mission, how confident are you that you picked the correct answer?",
              "type": "slider",
              "meta_data": {
                "showValue": true,
                "min": 0,
                "max": 100,
                "startValue": 50,
                "valueChar": "%",
                "labels": {
                  "0": "Not confident at all",
                  "100": "Totally confident"
                },
                "required": true
              }
            },
            {
              "name": "P3P02K",
              "text": "Your next Mission",
              "type": "side_window",
              "meta_data": {
                "rightSidePct": 66,
                "url": "https://klarigo.herokuapp.com/?default_load=990367&user_mode=apercu_compare",
                "tab_name": "Help"
              },
              "required": false
            }
          ]
        }
      ]
    },
    {
      "title": "Mission 2: Drone 1's plan is better.",
      "pages": [
        {
          "title": "Time limit for this above average Hiker: 120 Minutes. Penalty limit: 100 points.",
          "last_page": false,
          "elements": [
            {
              "name": "P3S02T01",
              "text": "TIP: You can find more information about the mission by reading with the Explanation Narrative to the right. Try clicking on the Checkboxes for a visual explanation.",
              "type": "para",
              "required": false
            },
            {
              "name": "P3P02A01Q",
              "text": "True or False: Drone 1’s plan has lower risk than Drone 2’s plan",
              "type": "multiple_choice",
              "choices": [
                "True",
                "False"
              ],
              "required": true
            },
            {
              "name": "P3P02AK",
              "text": "Your Next Mission",
              "type": "side_window",
              "meta_data": {
                "rightSidePct": 66,
                "url": "https://klarigo.herokuapp.com/?default_load=990367&user_mode=apercu_all",
                "tab_name": "Help"
              },
              "required": false
            }
          ]
        }
      ]
    },
    {
      "title": "Mission 3 of 20",
      "pages": [
        {
          "title": "Time limit for this above average Hiker: 120 Minutes; Penalty limit: 100 points",
          "last_page": false,
          "elements": [
            {
              "name": "P3P03Q",
              "text": "Which plan wins?",
              "type": "multiple_choice",
              "choices": [
                "Drone 1 wins",
                "Drone 2 wins",
                "It is a tie "
              ],
              "required": true
            },
            {
              "name": "P3P03CQ",
              "text": "In this mission, how confident are you that you picked the correct answer?",
              "type": "slider",
              "meta_data": {
                "showValue": true,
                "min": 0,
                "max": 100,
                "startValue": 50,
                "valueChar": "%",
                "labels": {
                  "0": "Not confident at all",
                  "100": "Totally confident"
                },
                "required": true
              }
            },
            {
              "name": "P3P03QK",
              "text": "Your next Mission",
              "type": "side_window",
              "meta_data": {
                "rightSidePct": 66,
                "url": "https://klarigo.herokuapp.com/?default_load=29470014&user_mode=apercu_compare",
                "tab_name": "Help"
              },
              "required": false
            }
          ]
        }
      ]
    },
    {
      "title": "Mission 3: Drone 1's plan is better.",
      "pages": [
        {
          "title": "Time limit for this above average Hiker: 120 Minutes. Penalty limit: 100 points",
          "last_page": false,
          "elements": [
            {
              "name": "P3S03T01",
              "text": "TIP: You can find more information about the mission by reading with the Explanation Narrative to the right. Try clicking on the Checkboxes for a visual explanation.",
              "type": "para",
              "required": false
            },
            {
              "name": "P3P03A01",
              "text": "Please answer some questions about what you see here.",
              "type": "para",
              "required": false
            },
            {
              "name": "P3P03A01Q",
              "text": "True or False: Drone 1’s plan has lower risk than Drone 2’s plan",
              "type": "multiple_choice",
              "choices": [
                "True",
                "False"
              ],
              "required": true
            },
            {
              "name": "P3P02AK",
              "text": "Your Next Mission",
              "type": "side_window",
              "meta_data": {
                "rightSidePct": 66,
                "url": "https://klarigo.herokuapp.com/?default_load=29470014&user_mode=apercu_all",
                "tab_name": "Help"
              },
              "required": false
            }
          ]
        }
      ]
    },
    {
      "title": "Mission 4 of 20",
      "pages": [
        {
          "title": "Time limit for this above average Hiker: 120 Minutes; Penalty limit: 100 points.",
          "last_page": false,
          "elements": [
            {
              "name": "P3P04Q",
              "text": "Which plan wins?",
              "type": "multiple_choice",
              "choices": [
                "Drone 1 wins",
                "Drone 2 wins",
                "It is a tie "
              ],
              "required": true
            },
            {
              "name": "P3P04CQ",
              "text": "In this mission, how confident are you that you picked the correct answer?",
              "type": "slider",
              "meta_data": {
                "showValue": true,
                "min": 0,
                "max": 100,
                "startValue": 50,
                "valueChar": "%",
                "labels": {
                  "0": "Not confident at all",
                  "100": "Totally confident"
                },
                "required": true
              }
            },
            {
              "name": "P3P04QK",
              "text": "Your next Mission",
              "type": "side_window",
              "meta_data": {
                "rightSidePct": 66,
                "url": "https://klarigo.herokuapp.com/?default_load=76227120&user_mode=apercu_compare",
                "tab_name": "Help"
              },
              "required": false
            }
          ]
        }
      ]
    },
    {
      "title": "Mission 4: Drone 1's plan is better ",
      "pages": [
        {
          "title": "Time limit for this above average Hiker: 120 Minutes. Penalty limit: 100 points",
          "last_page": false,
          "elements": [
            {
              "name": "P3S04T01",
              "text": "TIP: You can find more information about the mission by reading with the Explanation Narrative to the right. Try clicking on the Checkboxes for a visual explanation.",
              "type": "para",
              "required": false
            },
            {
              "name": "P3P04A01",
              "text": "Please answer some questions about what you see here.",
              "type": "para",
              "required": false
            },
            {
              "name": "P3P04A01Q",
              "text": "True or False: Drone 1’s plan has lower risk than Drone 2’s plan",
              "type": "multiple_choice",
              "choices": [
                "True",
                "False"
              ],
              "required": true
            },
            {
              "name": "P3P04AK",
              "text": "Your Next Mission",
              "type": "side_window",
              "meta_data": {
                "rightSidePct": 66,
                "url": "https://klarigo.herokuapp.com/?default_load=76227120&user_mode=apercu_all",
                "tab_name": "Help"
              },
              "required": false
            }
          ]
        }
      ]
    },
    {
      "title": "Mission 5 of 20",
      "pages": [
        {
          "title": "Time limit for this above average Hiker: 120 Minutes; Penalty limit: 100 points.",
          "last_page": false,
          "elements": [
            {
              "name": "P3P05Q",
              "text": "Which plan wins?",
              "type": "multiple_choice",
              "choices": [
                "Drone 1 wins",
                "Drone 2 wins",
                "It is a tie "
              ],
              "required": true
            },
            {
              "name": "P3P065Q",
              "text": "In this mission, how confident are you that you picked the correct answer?",
              "type": "slider",
              "meta_data": {
                "showValue": true,
                "min": 0,
                "max": 100,
                "startValue": 50,
                "valueChar": "%",
                "labels": {
                  "0": "Not confident at all",
                  "100": "Totally confident"
                },
                "required": true
              }
            },
            {
              "name": "P3P05QK",
              "text": "Your next Mission",
              "type": "side_window",
              "meta_data": {
                "rightSidePct": 66,
                "url": "https://klarigo.herokuapp.com/?default_load=34720991&user_mode=apercu_compare",
                "tab_name": "Help"
              },
              "required": false
            }
          ]
        }
      ]
    },
    {
      "title": "Mission 5: The drones tie",
      "pages": [
        {
          "title": "Time limit for this above average Hiker: 120 Minutes; Penalty limit: 100 points",
          "last_page": false,
          "elements": [
            {
              "name": "P3P05A01",
              "text": "Please answer some questions about what you see here.",
              "type": "para",
              "required": false
            },
            {
              "name": "P3P05A01Q",
              "text": "True or False: Drone 1’s plan has lower risk than Drone 2’s plan",
              "type": "multiple_choice",
              "choices": [
                "True",
                "False"
              ],
              "required": true
            },
            {
              "name": "P3P05AK",
              "text": "Your Next Mission",
              "type": "side_window",
              "meta_data": {
                "rightSidePct": 66,
                "url": "https://klarigo.herokuapp.com/?default_load=34720991&user_mode=apercu_all",
                "tab_name": "Help"
              },
              "required": false
            }
          ]
        }
      ]
    },
    {
      "title": "Mission 6 of 20",
      "pages": [
        {
          "title": "Time limit for this above average Hiker: 140 Minutes; Penalty limit: 100 points.",
          "last_page": false,
          "elements": [
            {
              "name": "P3P06Q",
              "text": "Which plan wins?",
              "type": "multiple_choice",
              "choices": [
                "Drone 1 wins",
                "Drone 2 wins",
                "It is a tie "
              ],
              "required": true
            },
            {
              "name": "P3P06CQ",
              "text": "In this mission, how confident are you that you picked the correct answer?",
              "type": "slider",
              "meta_data": {
                "showValue": true,
                "min": 0,
                "max": 100,
                "startValue": 50,
                "valueChar": "%",
                "labels": {
                  "0": "Not confident at all",
                  "100": "Totally confident"
                },
                "required": true
              }
            },
            {
              "name": "P3P06QK",
              "text": "Your next Mission",
              "type": "side_window",
              "meta_data": {
                "rightSidePct": 66,
                "url": "https://klarigo.herokuapp.com/?default_load=57080167&user_mode=apercu_compare",
                "tab_name": "Help"
              },
              "required": false
            }
          ]
        }
      ]
    },
    {
      "title": "Mission 6: Drone 2's plan is better",
      "pages": [
        {
          "title": "Time limit for this above average Hiker: 120 Minutes; Penalty limit: 100 points",
          "last_page": false,
          "elements": [
            {
              "name": "P3S06T01",
              "text": "TIP: You can find more information about the mission by reading with the Explanation Narrative to the right. Try clicking on the Checkboxes for a visual explanation.",
              "type": "para",
              "required": false
            },
            {
              "name": "P3P06A01",
              "text": "Please answer some questions about what you see here.",
              "type": "para",
              "required": false
            },
            {
              "name": "P3P06A01Q",
              "text": "True or False: Drone 1’s plan has lower risk than Drone 2’s plan",
              "type": "multiple_choice",
              "choices": [
                "True",
                "False"
              ],
              "required": true
            },
            {
              "name": "P3P06AK",
              "text": "Your Next Mission",
              "type": "side_window",
              "meta_data": {
                "rightSidePct": 66,
                "url": "https://klarigo.herokuapp.com/?default_load=57080167&user_mode=apercu_all",
                "tab_name": "Help"
              },
              "required": false
            }
          ]
        }
      ]
    },
    {
      "title": "Mission 7 of 20",
      "pages": [
        {
          "title": "Time limit for this above average Hiker: 140 Minutes; Penalty limit: 100 points.",
          "last_page": false,
          "elements": [
            {
              "name": "P3P07Q",
              "text": "Which plan wins?",
              "type": "multiple_choice",
              "choices": [
                "Drone 1 wins",
                "Drone 2 wins",
                "It is a tie "
              ],
              "required": true
            },
            {
              "name": "P3P07CQ",
              "text": "In this mission, how confident are you that you picked the correct answer?",
              "type": "slider",
              "meta_data": {
                "showValue": true,
                "min": 0,
                "max": 100,
                "startValue": 50,
                "valueChar": "%",
                "labels": {
                  "0": "Not confident at all",
                  "100": "Totally confident"
                },
                "required": true
              }
            },
            {
              "name": "P3P07QK",
              "text": "Your next Mission",
              "type": "side_window",
              "meta_data": {
                "rightSidePct": 66,
                "url": "https://klarigo.herokuapp.com/?default_load=57100167&user_mode=apercu_compare",
                "tab_name": "Help"
              },
              "required": false
            }
          ]
        }
      ]
    },
    {
      "title": "Mission 7: Drone 2's plan is better",
      "pages": [
        {
          "title": "Time limit for this above average Hiker: 140 Minutes; Penalty limit: 100 points",
          "last_page": false,
          "elements": [
            {
              "name": "P3P07A01",
              "text": "Please answer some questions about what you see here.",
              "type": "para",
              "required": false
            },
            {
              "name": "P3P07A01Q",
              "text": "True or False: Drone 1’s plan has lower risk than Drone 2’s plan",
              "type": "multiple_choice",
              "choices": [
                "True",
                "False"
              ],
              "required": true
            },
            {
              "name": "P3P07AK",
              "text": "Your Next Mission",
              "type": "side_window",
              "meta_data": {
                "rightSidePct": 66,
                "url": "https://klarigo.herokuapp.com/?default_load=57100167&user_mode=apercu_all",
                "tab_name": "Help"
              },
              "required": false
            }
          ]
        }
      ]
    },
    {
      "title": "Mission 8 of 20",
      "pages": [
        {
          "title": "Time limit for this above average Hiker: 140 Minutes; Penalty limit: 100 points.",
          "last_page": false,
          "elements": [
            {
              "name": "P3P08Q",
              "text": "Which plan wins?",
              "type": "multiple_choice",
              "choices": [
                "Drone 1 wins",
                "Drone 2 wins",
                "It is a tie "
              ],
              "required": true
            },
            {
              "name": "P3P08CQ",
              "text": "In this mission, how confident are you that you picked the correct answer?",
              "type": "slider",
              "meta_data": {
                "showValue": true,
                "min": 0,
                "max": 100,
                "startValue": 50,
                "valueChar": "%",
                "labels": {
                  "0": "Not confident at all",
                  "100": "Totally confident"
                },
                "required": true
              }
            },
            {
              "name": "P3P08QK",
              "text": "Your next Mission",
              "type": "side_window",
              "meta_data": {
                "rightSidePct": 66,
                "url": "https://klarigo.herokuapp.com/?default_load=57090167&user_mode=apercu_compare",
                "tab_name": "Help"
              },
              "required": false
            }
          ]
        }
      ]
    },
    {
      "title": "Mission 8: Drone 2's plan is better",
      "pages": [
        {
          "title": "Time limit for this above average Hiker: 140 Minutes; Penalty limit: 100 points",
          "last_page": false,
          "elements": [
            {
              "name": "P3P08A01",
              "text": "To the right is some information about these two flight plans. Please answer some questions about what you see here.",
              "type": "para",
              "required": false
            },
            {
              "name": "P3P08A01Q",
              "text": "True or False: Drone 1’s plan has lower risk than Drone 2’s plan",
              "type": "multiple_choice",
              "choices": [
                "True",
                "False"
              ],
              "required": true
            },
            {
              "name": "P3P08AK",
              "text": "Your Next Mission",
              "type": "side_window",
              "meta_data": {
                "rightSidePct": 66,
                "url": "https://klarigo.herokuapp.com/?default_load=57090167&user_mode=apercu_all",
                "tab_name": "Help"
              },
              "required": false
            }
          ]
        }
      ]
    },
    {
      "title": "Mission 9 of 20",
      "pages": [
        {
          "title": "Time limit for this above average Hiker: 180 Minutes; Penalty limit: 100 points.",
          "last_page": false,
          "elements": [
            {
              "name": "P3P09Q",
              "text": "Which plan wins?",
              "type": "multiple_choice",
              "choices": [
                "Drone 1 wins",
                "Drone 2 wins",
                "It is a tie "
              ],
              "required": true
            },
            {
              "name": "P3P09CQ",
              "text": "In this mission, how confident are you that you picked the correct answer?",
              "type": "slider",
              "meta_data": {
                "showValue": true,
                "min": 0,
                "max": 100,
                "startValue": 50,
                "valueChar": "%",
                "labels": {
                  "0": "Not confident at all",
                  "100": "Totally confident"
                },
                "required": true
              }
            },
            {
              "name": "P3P09QK",
              "text": "Your next Mission",
              "type": "side_window",
              "meta_data": {
                "rightSidePct": 66,
                "url": "https://klarigo.herokuapp.com/?default_load=40266987&user_mode=apercu_compare",
                "tab_name": "Help"
              },
              "required": false
            }
          ]
        }
      ]
    },
    {
      "title": "Mission 9: Drone 1's plan is better",
      "pages": [
        {
          "title": "Time limit for this above average Hiker: 180 Minutes; Penalty limit: 100 points",
          "last_page": false,
          "elements": [
            {
              "name": "P3P09A01",
              "text": "Please answer some questions about what you see here.",
              "type": "para",
              "required": false
            },
            {
              "name": "P3P09A01Q",
              "text": "True or False: Drone 1’s plan has lower risk than Drone 2’s plan",
              "type": "multiple_choice",
              "choices": [
                "True",
                "False"
              ],
              "required": true
            },
            {
              "name": "P3P09AK",
              "text": "Your Next Mission",
              "type": "side_window",
              "meta_data": {
                "rightSidePct": 66,
                "url": "https://klarigo.herokuapp.com/?default_load=40266987&user_mode=apercu_all",
                "tab_name": "Help"
              },
              "required": false
            }
          ]
        }
      ]
    },
    {
      "title": "Mission 10 of 20",
      "pages": [
        {
          "title": "Time limit for this above average Hiker: 140 Minutes; Penalty limit: 100 points.",
          "last_page": false,
          "elements": [
            {
              "name": "P3P10Q",
              "text": "Which plan wins?",
              "type": "multiple_choice",
              "choices": [
                "Drone 1 wins",
                "Drone 2 wins",
                "It is a tie "
              ],
              "required": true
            },
            {
              "name": "P3P10CQ",
              "text": "In this mission, how confident are you that you picked the correct answer?",
              "type": "slider",
              "meta_data": {
                "showValue": true,
                "min": 0,
                "max": 100,
                "startValue": 50,
                "valueChar": "%",
                "labels": {
                  "0": "Not confident at all",
                  "100": "Totally confident"
                },
                "required": true
              }
            },
            {
              "name": "P3P10QK",
              "text": "Your next Mission",
              "type": "side_window",
              "meta_data": {
                "rightSidePct": 66,
                "url": "https://klarigo.herokuapp.com/?default_load=57100267&user_mode=apercu_compare",
                "tab_name": "Help"
              },
              "required": false
            }
          ]
        }
      ]
    },
    {
      "title": "Mission 10: Drone 2's plan is better",
      "pages": [
        {
          "title": "Time limit for this above average Hiker: 140 Minutes; Penalty limit: 100 points",
          "last_page": false,
          "elements": [
            {
              "name": "P3P10A01",
              "text": "Please answer some questions about what you see here.",
              "type": "para",
              "required": false
            },
            {
              "name": "P3P10A01Q",
              "text": "True or False: Drone 1’s plan has lower risk than Drone 2’s plan",
              "type": "multiple_choice",
              "choices": [
                "True",
                "False"
              ],
              "required": true
            },
            {
              "name": "P3P10AK",
              "text": "Your Next Mission",
              "type": "side_window",
              "meta_data": {
                "rightSidePct": 66,
                "url": "https://klarigo.herokuapp.com/?default_load=57100267&user_mode=apercu_all",
                "tab_name": "Help"
              },
              "required": false
            }
          ]
        }
      ]
    },
    {
      "title": "Mission 11 of 20",
      "pages": [
        {
          "title": "Time limit for this above average Hiker: 140 Minutes; Penalty limit: 100 points.",
          "last_page": false,
          "elements": [
            {
              "name": "P3P11Q",
              "text": "Which plan wins?",
              "type": "multiple_choice",
              "choices": [
                "Drone 1 wins",
                "Drone 2 wins",
                "It is a tie "
              ],
              "required": true
            },
            {
              "name": "P3P11CQ",
              "text": "In this mission, how confident are you that you picked the correct answer?",
              "type": "slider",
              "meta_data": {
                "showValue": true,
                "min": 0,
                "max": 100,
                "startValue": 50,
                "valueChar": "%",
                "labels": {
                  "0": "Not confident at all",
                  "100": "Totally confident"
                },
                "required": true
              }
            },
            {
              "name": "P3P11QK",
              "text": "Your next Mission",
              "type": "side_window",
              "meta_data": {
                "rightSidePct": 66,
                "url": "https://klarigo.herokuapp.com/?default_load=57090267&user_mode=apercu_compare",
                "tab_name": "Help"
              },
              "required": false
            }
          ]
        }
      ]
    },
    {
      "title": "Mission 11: Drone 2's plan is better",
      "pages": [
        {
          "title": "Time limit for this above average Hiker: 140 Minutes; Penalty limit: 100 points",
          "last_page": false,
          "elements": [
            {
              "name": "P3P11A01",
              "text": "Please answer some questions about what you see here.",
              "type": "para",
              "required": false
            },
            {
              "name": "P3P11A01Q",
              "text": "True or False: Drone 1’s plan has lower risk than Drone 2’s plan",
              "type": "multiple_choice",
              "choices": [
                "True",
                "False"
              ],
              "required": true
            },
            {
              "name": "P3P11AK",
              "text": "Your Next Mission",
              "type": "side_window",
              "meta_data": {
                "rightSidePct": 66,
                "url": "https://klarigo.herokuapp.com/?default_load=57090267&user_mode=apercu_all",
                "tab_name": "Help"
              },
              "required": false
            }
          ]
        }
      ]
    },
    {
      "title": "Mission 12 of 20",
      "pages": [
        {
          "title": "Time limit for this above average Hiker: 140 Minutes; Penalty limit: 100 points.",
          "last_page": false,
          "elements": [
            {
              "name": "P3P12Q",
              "text": "Which plan wins?",
              "type": "multiple_choice",
              "choices": [
                "Drone 1 wins",
                "Drone 2 wins",
                "It is a tie "
              ],
              "required": true
            },
            {
              "name": "P3P12CQ",
              "text": "In this mission, how confident are you that you picked the correct answer?",
              "type": "slider",
              "meta_data": {
                "showValue": true,
                "min": 0,
                "max": 100,
                "startValue": 50,
                "valueChar": "%",
                "labels": {
                  "0": "Not confident at all",
                  "100": "Totally confident"
                },
                "required": true
              }
            },
            {
              "name": "P3P12QK",
              "text": "Your next Mission",
              "type": "side_window",
              "meta_data": {
                "rightSidePct": 66,
                "url": "https://klarigo.herokuapp.com/?default_load=75091315&user_mode=apercu_compare",
                "tab_name": "Help"
              },
              "required": false
            }
          ]
        }
      ]
    },
    {
      "title": "Mission 12: Drone 2's plan is better",
      "pages": [
        {
          "title": "Time limit for this above average Hiker: 140 Minutes; Penalty limit: 100 points",
          "last_page": false,
          "elements": [
            {
              "name": "P3P12A01",
              "text": "Please answer some questions about what you see here.",
              "type": "para",
              "required": false
            },
            {
              "name": "P3P12A01Q",
              "text": "True or False: Drone 1’s plan has lower risk than Drone 2’s plan",
              "type": "multiple_choice",
              "choices": [
                "True",
                "False"
              ],
              "required": true
            },
            {
              "name": "P3P12AK",
              "text": "Your Next Mission",
              "type": "side_window",
              "meta_data": {
                "rightSidePct": 66,
                "url": "https://klarigo.herokuapp.com/?default_load=75091315&user_mode=apercu_all",
                "tab_name": "Help"
              },
              "required": false
            }
          ]
        }
      ]
    },
    {
      "title": "Mission 13 of 20",
      "pages": [
        {
          "title": "Time limit for this above average Hiker: 120 Minutes; Penalty limit: 100 points.",
          "last_page": false,
          "elements": [
            {
              "name": "P3P13Q",
              "text": "Which plan wins?",
              "type": "multiple_choice",
              "choices": [
                "Drone 1 wins",
                "Drone 2 wins",
                "It is a tie "
              ],
              "required": true
            },
            {
              "name": "P3P13CQ",
              "text": "In this mission, how confident are you that you picked the correct answer?",
              "type": "slider",
              "meta_data": {
                "showValue": true,
                "min": 0,
                "max": 100,
                "startValue": 50,
                "valueChar": "%",
                "labels": {
                  "0": "Not confident at all",
                  "100": "Totally confident"
                },
                "required": true
              }
            },
            {
              "name": "P3P13QK",
              "text": "Your next Mission",
              "type": "side_window",
              "meta_data": {
                "rightSidePct": 66,
                "url": "https://klarigo.herokuapp.com/?default_load=57011167&user_mode=apercu_compare",
                "tab_name": "Help"
              },
              "required": false
            }
          ]
        }
      ]
    },
    {
      "title": "Mission 13: Drone 1's plan is better",
      "pages": [
        {
          "title": "Time limit for this above average Hiker: 120 Minutes; Penalty limit: 100 points",
          "last_page": false,
          "elements": [
            {
              "name": "P3P13A01",
              "text": "Please answer some questions about what you see here.",
              "type": "para",
              "required": false
            },
            {
              "name": "P3P13A01Q",
              "text": "True or False: Drone 1’s plan has lower risk than Drone 2’s plan",
              "type": "multiple_choice",
              "choices": [
                "True",
                "False"
              ],
              "required": true
            },
            {
              "name": "P3P13AK",
              "text": "Your Next Mission",
              "type": "side_window",
              "meta_data": {
                "rightSidePct": 66,
                "url": "https://klarigo.herokuapp.com/?default_load=57011167&user_mode=apercu_all",
                "tab_name": "Help"
              },
              "required": false
            }
          ]
        }
      ]
    },
    {
      "title": "Mission 14 of 20",
      "pages": [
        {
          "title": "Time limit for this above average Hiker: 120 Minutes; Penalty limit: 100 points.",
          "last_page": false,
          "elements": [
            {
              "name": "P3P14Q",
              "text": "Which plan wins?",
              "type": "multiple_choice",
              "choices": [
                "Drone 1 wins",
                "Drone 2 wins",
                "It is a tie "
              ],
              "required": true
            },
            {
              "name": "P3P14CQ",
              "text": "In this mission, how confident are you that you picked the correct answer?",
              "type": "slider",
              "meta_data": {
                "showValue": true,
                "min": 0,
                "max": 100,
                "startValue": 50,
                "valueChar": "%",
                "labels": {
                  "0": "Not confident at all",
                  "100": "Totally confident"
                },
                "required": true
              }
            },
            {
              "name": "P3P14QK",
              "text": "Your next Mission",
              "type": "side_window",
              "meta_data": {
                "rightSidePct": 66,
                "url": "https://klarigo.herokuapp.com/?default_load=57010367&user_mode=apercu_compare",
                "tab_name": "Help"
              },
              "required": false
            }
          ]
        }
      ]
    },
    {
      "title": "Mission 14: Drone 1's plan is better",
      "pages": [
        {
          "title": "Time limit for this above average Hiker: 120 Minutes; Penalty limit: 100 points",
          "last_page": false,
          "elements": [
            {
              "name": "P3P14A01",
              "text": "Please answer some questions about what you see here.",
              "type": "para",
              "required": false
            },
            {
              "name": "P3P14A01Q",
              "text": "True or False: Drone 1’s plan has lower risk than Drone 2’s plan",
              "type": "multiple_choice",
              "choices": [
                "True",
                "False"
              ],
              "required": true
            },
            {
              "name": "P3P14AK",
              "text": "Your Next Mission",
              "type": "side_window",
              "meta_data": {
                "rightSidePct": 66,
                "url": "https://klarigo.herokuapp.com/?default_load=57010367&user_mode=apercu_all",
                "tab_name": "Help"
              },
              "required": false
            }
          ]
        }
      ]
    },
    {
      "title": "Mission 15 of 20",
      "pages": [
        {
          "title": "Time limit for this above average Hiker: 140 Minutes; Penalty limit: 100 points.",
          "last_page": false,
          "elements": [
            {
              "name": "P3P15Q",
              "text": "Which plan wins?",
              "type": "multiple_choice",
              "choices": [
                "Drone 1 wins",
                "Drone 2 wins",
                "It is a tie "
              ],
              "required": true
            },
            {
              "name": "P3P15CQ",
              "text": "In this mission, how confident are you that you picked the correct answer?",
              "type": "slider",
              "meta_data": {
                "showValue": true,
                "min": 0,
                "max": 100,
                "startValue": 50,
                "valueChar": "%",
                "labels": {
                  "0": "Not confident at all",
                  "100": "Totally confident"
                },
                "required": true
              }
            },
            {
              "name": "P3P15QK",
              "text": "Your next Mission",
              "type": "side_window",
              "meta_data": {
                "rightSidePct": 66,
                "url": "https://klarigo.herokuapp.com/?default_load=57050267&user_mode=apercu_compare",
                "tab_name": "Help"
              },
              "required": false
            }
          ]
        }
      ]
    },
    {
      "title": "Mission 15: Drone 2's plan is better",
      "pages": [
        {
          "title": "Time limit for this above average Hiker: 140 Minutes; Penalty limit: 100 points",
          "last_page": false,
          "elements": [
            {
              "name": "P3P15A01",
              "text": "Please answer some questions about what you see here.",
              "type": "para",
              "required": false
            },
            {
              "name": "P3P15A01Q",
              "text": "True or False: Drone 1’s plan has lower risk than Drone 2’s plan",
              "type": "multiple_choice",
              "choices": [
                "True",
                "False"
              ],
              "required": true
            },
            {
              "name": "P3P15AK",
              "text": "Your Next Mission",
              "type": "side_window",
              "meta_data": {
                "rightSidePct": 66,
                "url": "https://klarigo.herokuapp.com/?default_load=57050267&user_mode=apercu_all",
                "tab_name": "Help"
              },
              "required": false
            }
          ]
        }
      ]
    },
    {
      "title": "Mission 16 of 20",
      "pages": [
        {
          "title": "Time limit for this above average Hiker: 140 Minutes; Penalty limit: 100 points.",
          "last_page": false,
          "elements": [
            {
              "name": "P3P16Q",
              "text": "Which plan wins?",
              "type": "multiple_choice",
              "choices": [
                "Drone 1 wins",
                "Drone 2 wins",
                "It is a tie "
              ],
              "required": true
            },
            {
              "name": "P3P16CQ",
              "text": "In this mission, how confident are you that you picked the correct answer?",
              "type": "slider",
              "meta_data": {
                "showValue": true,
                "min": 0,
                "max": 100,
                "startValue": 50,
                "valueChar": "%",
                "labels": {
                  "0": "Not confident at all",
                  "100": "Totally confident"
                },
                "required": true
              }
            },
            {
              "name": "P3P16QK",
              "text": "Your next Mission",
              "type": "side_window",
              "meta_data": {
                "rightSidePct": 66,
                "url": "https://klarigo.herokuapp.com/?default_load=57040267&user_mode=apercu_compare",
                "tab_name": "Help"
              },
              "required": false
            }
          ]
        }
      ]
    },
    {
      "title": "Mission 16: Drone 1's plan is better",
      "pages": [
        {
          "title": "Time limit for this above average Hiker: 140 Minutes; Penalty limit: 100 points",
          "last_page": false,
          "elements": [
            {
              "name": "P3P16A01",
              "text": "Please answer some questions about what you see here.",
              "type": "para",
              "required": false
            },
            {
              "name": "P3P16A01Q",
              "text": "True or False: Drone 1’s plan has lower risk than Drone 2’s plan",
              "type": "multiple_choice",
              "choices": [
                "True",
                "False"
              ],
              "required": true
            },
            {
              "name": "P3P16AK",
              "text": "Your Next Mission",
              "type": "side_window",
              "meta_data": {
                "rightSidePct": 66,
                "url": "https://klarigo.herokuapp.com/?default_load=57040267&user_mode=apercu_all",
                "tab_name": "Help"
              },
              "required": false
            }
          ]
        }
      ]
    },
    {
      "title": "Mission 17 of 20",
      "pages": [
        {
          "title": "Time limit for this above average Hiker: 140 Minutes; Penalty limit: 100 points.",
          "last_page": false,
          "elements": [
            {
              "name": "P3P17Q",
              "text": "Which plan wins?",
              "type": "multiple_choice",
              "choices": [
                "Drone 1 wins",
                "Drone 2 wins",
                "It is a tie "
              ],
              "required": true
            },
            {
              "name": "P3P17CQ",
              "text": "In this mission, how confident are you that you picked the correct answer?",
              "type": "slider",
              "meta_data": {
                "showValue": true,
                "min": 0,
                "max": 100,
                "startValue": 50,
                "valueChar": "%",
                "labels": {
                  "0": "Not confident at all",
                  "100": "Totally confident"
                },
                "required": true
              }
            },
            {
              "name": "P3P17QK",
              "text": "Your next Mission",
              "type": "side_window",
              "meta_data": {
                "rightSidePct": 66,
                "url": "https://klarigo.herokuapp.com/?default_load=48272586&user_mode=apercu_compare",
                "tab_name": "Help"
              },
              "required": false
            }
          ]
        }
      ]
    },
    {
      "title": "Mission 17: Drone 2's plan is better",
      "pages": [
        {
          "title": "Time limit for this above average Hiker: 140 Minutes; Penalty limit: 100 points",
          "last_page": false,
          "elements": [
            {
              "name": "P3P17A01",
              "text": "Please answer some questions about what you see here.",
              "type": "para",
              "required": false
            },
            {
              "name": "P3P17A01Q",
              "text": "True or False: Drone 1’s plan has lower risk than Drone 2’s plan",
              "type": "multiple_choice",
              "choices": [
                "True",
                "False"
              ],
              "required": true
            },
            {
              "name": "P3P16AK",
              "text": "Your Next Mission",
              "type": "side_window",
              "meta_data": {
                "rightSidePct": 66,
                "url": "https://klarigo.herokuapp.com/?default_load=48272586&user_mode=apercu_all",
                "tab_name": "Help"
              },
              "required": false
            }
          ]
        }
      ]
    },
    {
      "title": "Mission 18 of 20",
      "pages": [
        {
          "title": "Time limit for this above average Hiker: 140 Minutes; Penalty limit: 100 points.",
          "last_page": false,
          "elements": [
            {
              "name": "P3P18Q",
              "text": "Which plan wins?",
              "type": "multiple_choice",
              "choices": [
                "Drone 1 wins",
                "Drone 2 wins",
                "It is a tie "
              ],
              "required": true
            },
            {
              "name": "P3P18CQ",
              "text": "In this mission, how confident are you that you picked the correct answer?",
              "type": "slider",
              "meta_data": {
                "showValue": true,
                "min": 0,
                "max": 100,
                "startValue": 50,
                "valueChar": "%",
                "labels": {
                  "0": "Not confident at all",
                  "100": "Totally confident"
                },
                "required": true
              }
            },
            {
              "name": "P3P18QK",
              "text": "Your next Mission",
              "type": "side_window",
              "meta_data": {
                "rightSidePct": 66,
                "url": "https://klarigo.herokuapp.com/?default_load=52364446&user_mode=apercu_compare",
                "tab_name": "Help"
              },
              "required": false
            }
          ]
        }
      ]
    },
    {
      "title": "Mission 18: Drone 2's plan is better",
      "pages": [
        {
          "title": "Time limit for this above average Hiker: 140 Minutes; Penalty limit: 100 points",
          "last_page": false,
          "elements": [
            {
              "name": "P3P18A01",
              "text": "Please answer some questions about what you see here.",
              "type": "para",
              "required": false
            },
            {
              "name": "P3P18A01Q",
              "text": "True or False: Drone 1’s plan has lower risk than Drone 2’s plan",
              "type": "multiple_choice",
              "choices": [
                "True",
                "False"
              ],
              "required": true
            },
            {
              "name": "P3P18AK",
              "text": "Your Next Mission",
              "type": "side_window",
              "meta_data": {
                "rightSidePct": 66,
                "url": "https://klarigo.herokuapp.com/?default_load=52364446&user_mode=apercu_all",
                "tab_name": "Help"
              },
              "required": false
            }
          ]
        }
      ]
    },
    {
      "title": "Mission 19 of 20",
      "pages": [
        {
          "title": "Time limit for this above average Hiker: 300 Minutes; Penalty limit: 100 points.",
          "last_page": false,
          "elements": [
            {
              "name": "P3P19Q",
              "text": "Which plan wins?",
              "type": "multiple_choice",
              "choices": [
                "Drone 1 wins",
                "Drone 2 wins",
                "It is a tie "
              ],
              "required": true
            },
            {
              "name": "P3P19CQ",
              "text": "In this mission, how confident are you that you picked the correct answer?",
              "type": "slider",
              "meta_data": {
                "showValue": true,
                "min": 0,
                "max": 100,
                "startValue": 50,
                "valueChar": "%",
                "labels": {
                  "0": "Not confident at all",
                  "100": "Totally confident"
                },
                "required": true
              }
            },
            {
              "name": "P3P19QK",
              "text": "Your next Mission",
              "type": "side_window",
              "meta_data": {
                "rightSidePct": 66,
                "url": "https://klarigo.herokuapp.com/?default_load=57110167&user_mode=apercu_compare",
                "tab_name": "Help"
              },
              "required": false
            }
          ]
        }
      ]
    },
    {
      "title": "Mission 19: Drone 1's plan is better",
      "pages": [
        {
          "title": "Time limit for this above average Hiker: 300 Minutes; Penalty limit: 100 points",
          "last_page": false,
          "elements": [
            {
              "name": "P3P19A01",
              "text": "Please answer some questions about what you see here.",
              "type": "para",
              "required": false
            },
            {
              "name": "P3P19A01Q",
              "text": "True or False: Drone 1’s plan has lower risk than Drone 2’s plan",
              "type": "multiple_choice",
              "choices": [
                "True",
                "False"
              ],
              "required": true
            },
            {
              "name": "P3P19AK",
              "text": "Your Next Mission",
              "type": "side_window",
              "meta_data": {
                "rightSidePct": 66,
                "url": "https://klarigo.herokuapp.com/?default_load=57110167&user_mode=apercu_all",
                "tab_name": "Help"
              },
              "required": false
            }
          ]
        }
      ]
    },
    {
      "title": "Mission 20 of 20",
      "pages": [
        {
          "title": "Time limit for this above average Hiker: 180 Minutes; Penalty limit: 100 points.",
          "last_page": false,
          "elements": [
            {
              "name": "P3P20Q",
              "text": "Which plan wins?",
              "type": "multiple_choice",
              "choices": [
                "Drone 1 wins",
                "Drone 2 wins",
                "It is a tie "
              ],
              "required": true
            },
            {
              "name": "P3P20CQ",
              "text": "In this mission, how confident are you that you picked the correct answer?",
              "type": "slider",
              "meta_data": {
                "showValue": true,
                "min": 0,
                "max": 100,
                "startValue": 50,
                "valueChar": "%",
                "labels": {
                  "0": "Not confident at all",
                  "100": "Totally confident"
                },
                "required": true
              }
            },
            {
              "name": "P3P20QK",
              "text": "Your next Mission",
              "type": "side_window",
              "meta_data": {
                "rightSidePct": 66,
                "url": "https://klarigo.herokuapp.com/?default_load=57060267&user_mode=apercu_compare",
                "tab_name": "Help"
              },
              "required": false
            }
          ]
        }
      ]
    },
    {
      "title": "Mission 20: Drone 2's plan is better",
      "pages": [
        {
          "title": "Time limit for this above average Hiker: 180 Minutes; Penalty limit: 100 points",
          "last_page": false,
          "elements": [
            {
              "name": "P3P20A01",
              "text": "Please answer some questions about what you see here.",
              "type": "para",
              "required": false
            },
            {
              "name": "P3P20A01Q",
              "text": "True or False: Drone 1’s plan has lower risk than Drone 2’s plan",
              "type": "multiple_choice",
              "choices": [
                "True",
                "False"
              ],
              "required": true
            },
            {
              "name": "P3P20AK",
              "text": "Your Next Mission",
              "type": "side_window",
              "meta_data": {
                "rightSidePct": 66,
                "url": "https://klarigo.herokuapp.com/?default_load=57060267&user_mode=apercu_all",
                "tab_name": "Help"
              },
              "required": false
            }
          ]
        }
      ]
    },
    {
      "title": "End of this Mission Sequence",
      "pages": [
        {
          "title": "",
          "last_page": false,
          "elements": [
            {
              "name": "P3PEND",
              "text": "This concludes this mission sequence, please answer the following questions about these missions.",
              "type": "para",
              "required": false
            }
          ]
        }
      ]
    }
  ]
}



