{
    "name": "Simple Question Examples",
    "info": {"show_progress": true, "popups_required": true, "show_score": true},
    "instruments": [
        {
        "title": "Instrument 1, show all simple question types",
        "pages": [
            {"title": "All QTypes",
                "elements": [
                    {"type": "text",            "text": "Example text input: Please enter your name.", "meta_data":{"label": "name"}, "required": false},
                    {"type": "text_area",       "text": "Example multi line input.",       "meta_data":{"label": "multi-line"}, "required": false},
                    {"type": "para",            "text": "Exammple paragraph.  This is a simple paragraph to be inserted between questions.", "required": false},
                    {"type": "slider",          "text": "Example Slider: Do you agree with the assesment?", "meta_data": {"showValue": false, "valueChar":"", "labels":{"1":"Strongly Disagree", "2": "Disagree", "3": "Neutral", "4": "Agree", "5":"Strongly Agree"}, "min":1, "max":5, "startValue": 3}, "required": true},
                    {"type": "multiple_select", "text": "Example selection: Which games do you play most?", "choices": ["Clue", "Chess", "Checkers", "Blackjack", "Mind"], "required": true, "name": "ms1"},
                    {"type": "multiple_choice", "text": "Example multiple choice:  Choose all sports that you like.", "choices": ["Football", "Socker", "Hockey", "Baseball"], "required": true, "name": "mc1"},
                    {"type": "likert",          "text": "Example likert:  Do you agree with the president?", "meta_data": {}, "required": true},
                    {"type": "tlx",             "text": "How demanding was the task?", "meta_data": {}, "required": true},
                    {"type": "text",            "text": "How long is your driveway?", "meta_data":{"label": "feet", "type":"number"}, "required": true}
                ]
            }
            ],
            "score_logic": "((1 if {ms1}==['Chess'] else 0) + {score}) + (4 if '{mc1}'=='Football' else 0)"
        },
        {
            "title": "Section 1.1",
            "pages": [
            {"title": "All QTypes / w side window",
                "elements": [
                    {"type": "text",            "text": "Please enter your name.", "meta_data":{"label": "name"}, "required": false},
                    {"type": "text_area",       "text": "Multi line input.",       "meta_data":{"label": "multi-line"}, "required": false},
                    {"type": "para",            "text": "This is a paragraph.  It is not too long but hope it wraps around.", "required": false},
                    {"type": "slider",          "text": "Do you agree with the assesment?", "meta_data": {"showValue": false, "valueChar":"", "labels":{"1":"Strongly Disagree", "2": "Disagree", "3": "Neutral", "4": "Agree", "5":"Strongly Agree"}, "min":1, "max":5, "startValue": 3}, "required": false},
                    {"type": "multiple_select", "text": "Which games do you play?", "choices": ["Clue", "Chess", "Checkers", "Blackjack", "Mind"], "required": false, "name": "ms1"},
                    {"type": "multiple_choice", "text": "Which sport do you like?", "choices": ["Football", "Socker", "Hockey", "Baseball"], "required": false, "name": "mc1"},
                    {"type": "likert",          "text": "Do you agree with the president?", "meta_data": {}, "required": false},
                    {"type": "text",            "text": "How long is your driveway?", "meta_data":{"label": "feet", "type":"number"}, "required": false},
                    {"type": "side_window",     "text": "", "meta_data":{"url": "http://parc.xerox.com"}, "required": false}
                ]
            }
            ],
            "score_logic": "(2 if {ms1}==['Checkers'] else 0) + {score}"
        },
        {
            "title": "Section 1.1",
            "pages": [
            {"title": "Overlay",
                "elements": [
                    {"text": "Try overlay", "type": "iframe_overlay",  "meta_data":{"url": "https://klarigo.herokuapp.com/?default_load=b15da10f-52e1-41d9-8d10-684e1c479c1f&user_mode=apercu_all"}, "required": false}
                ]
            }
            ]
        },
        {
            "title": "Section 1.1",
            "pages": [
            {"title": "IFrame Inner",
                "elements": [
                    {"text": "Try overlay", "type": "iframe_inner",  "meta_data":{"url": "https://klarigo.herokuapp.com/?default_load=b15da10f-52e1-41d9-8d10-684e1c479c1f&user_mode=apercu_all"}, "required": false},
                    {"text": "Please enter your name.", "type": "text", "meta_data":{"label": "name"}, "required": false}
                ]
            },
            {"title": "Apercu All",
                "elements": [
                    {"text": "Apercu All", "type": "pop_up",  "meta_data":{"url": "https://klarigo.herokuapp.com?default_load=2897ff68-5a4c-4993-b958-59d2ec14e23a&user_mode=apercu_all"}, "required": false}
              ]
            },
            {"title": "Apercu scores",
                "elements": [
                    {"text": "Apercu scores", "type": "pop_up",  "meta_data":{"url": "http://127.0.0.1:3000?default_load=2897ff68-5a4c-4993-b958-59d2ec14e23a&user_mode=apercu_scores"}, "required": false}
                ]
            },
            {"title": "Apercu none",
                "elements": [
                    {"text": "Apercu none", "type": "pop_up",  "meta_data":{"url": "http://127.0.0.1:3000?default_load=2897ff68-5a4c-4993-b958-59d2ec14e23a&user_mode=apercu_none"}, "required": false}
                ]
            },
            {"title": "Apercu compare",
                "elements": [
                    {"text": "Apercu compare", "type": "pop_up",  "meta_data":{"url": "http://127.0.0.1:3000?default_load=b1b8ac8e-9fbe-4995-83a1-7223367c19db&user_mode=apercu_compare"}, "required": false}
                ]
            },
            {"title": "Page 1",
                "elements": [
                    {"text": "Do you see the html here?", "type": "file-html",  "meta_data":{"fileName": "study-html.html", "hang_time":15}, "required": true}
                ]
            }
            ]
        },          
        {
        "title": "Sample include", 
        "type": "include",
        "study_dir": "T1.include"
        },
        {
            "title": "Section Thanks",
            "pages": [
            {"title": "All done",
                "last_page": true,
                "elements": [
                   {"text": "Thank you, your survey is over.  Copy your completion code to your Turk account.", "meta_data":{"label": "completion code", "completionCode":"*completion_code*", "disabled": true}, "type":"text", "required": true}
                ]
            }
            ]            
        }
    ]
}