{
  "name": "Flight School Basics Content Intro",
  "info": {
    "popups_required": true,
    "show_score": true
  },
  "instruments": [
    {
      "title": "Example Explanation",
      "pages": [
        {
          "title": "See the TIP tab for suggestions about how to view the Explanations",
          "last_page": false,
          "elements": [
            {
              "name": "KSWIN02",
              "text": "You can leave the TIP tab open for later use",
              "type": "para",
              "required": false
            },
            {
              "name": "KSWIN03",
              "text": "",
              "type": "file-html",
              "meta_data": {
                "fileName": "klarigo_example.html"
              },
              "required": false
            },
            {
              "name": "KSWIN04",
              "text": "Flight School Controls",
              "type": "pop_up",
              "meta_data": {
                "url": "/static/klarigo_school_with_explanation_example/klarigo_example_popup.html"
              },
              "required": false
            }
          ]
        }
      ]
    },
    {
      "title": "Example Explanation",
      "pages": [
        {
          "title": "You will be asked to pick the Drone with the better plan",
          "last_page": false,
          "elements": [
            {
              "name": "KSWEX01",
              "text": "TIP: Try Clicking where indicated in the Tip Tab to Learn More",
              "type": "para",
              "required": false
            },
            {
              "name": "KSWEX02",
              "text": "You should be able to see following on the right side of the screen:",
              "type": "para",
              "required": false
            },
            {
              "name": "KSWEX03",
              "text": "The Mission TIME LIMIT is 140 minutes for this Mission. (HINT: It is at the bottom of the Table to the right)",
              "type": "para",
              "required": false
            },
            {
              "name": "KSWEX04",
              "text": "For the RETRIEVAL DURATIONs:  Both are drones are safely under the Time Limit",
              "type": "para",
              "required": false
            },
            {
              "name": "KSWEX05",
              "text": "PENALTY LIMIT is 100 points",
              "type": "para",
              "required": false
            },
            {
              "name": "KSWEX06",
              "text": "For the CRAFT SAFETY RISK: Both drones are safely under the 100 point limit",
              "type": "para",
              "required": false
            },
            {
              "name": "KSWEX07",
              "text": "For the PACKAGE SAFETY RISK: Both drones are safely under the 100 point limit",
              "type": "para",
              "required": false
            },
            {
              "name": "KSWEX08",
              "text": "For the TOTAL PENALTY: Drone 2's plan for this Mission has LOWER Total Penalty than Drone 1's plan",
              "type": "para",
              "required": false
            },
            {
              "name": "KSWEX09",
              "text": "THE ABOVE MEANS: Drone 2's Plan is better on this Mission by the Rules for Winning",
              "type": "para",
              "required": false
            },
            {
              "name": "KSWEX10",
              "text": "And finally reading the Explanation Narrative tells you a bit more about the Drones on this mission",
              "type": "para",
              "required": false
            },
            {
              "name": "KSCMPK",
              "text": "Your Next Mission",
              "type": "side_window",
              "meta_data": {
                "rightSidePct": 66,
                "url": "http://0.0.0.0:8008/?default_load=57010167&user_mode=apercu_all",
                "tab_name": "Help"
              },
              "required": false
            }
          ]
        }
      ]
    }
  ]
}



