{
  "name": "P3 Revealing Literacy",
  "info": {},
  "instruments": [
    {
      "title": "Introduction",
      "pages": [
        {
          "title": "",
          "last_page": false,
          "elements": [
            {
              "name": "P3RINT01",
              "text": "Your job will be to read some maps and descriptions and answer some questions about what you see.",
              "type": "para",
              "required": false
            },
            {
              "name": "P3RINT02",
              "text": "Each map shows a hiker that needs some supplies. The supply mission starts at a start point.",
              "type": "para",
              "required": false
            },
            {
              "name": "P3RINT03",
              "text": "A plane will fly to a drop point for the supplies, release the supply package, and fly back to the mission end point.",
              "type": "para",
              "required": false
            },
            {
              "name": "P3RINT04",
              "text": "The Hiker then has to walk to get the package.",
              "type": "para",
              "required": false
            },
            {
              "name": "FSBAQ0605",
              "text": "",
              "type": "side_window",
              "meta_data": {
                "rightSidePct": 60,
                "url": "../static/P3_revealing_literacy_heroku/reveal_intro.html",
                "tab_name": "Help"
              },
              "required": false
            }
          ]
        }
      ]
    },
    {
      "title": "Mission Planning",
      "pages": [
        {
          "title": "",
          "last_page": false,
          "elements": [
            {
              "name": "P3RPLN01",
              "text": "",
              "type": "side_window",
              "meta_data": {
                "rightSidePct": 60,
                "url": "../static/P3_revealing_literacy_heroku/GreenT_0.html",
                "tab_name": "Help"
              },
              "required": false
            },
            {
              "name": "P3RPLN01",
              "text": "Here are the two maps we want you to study.",
              "type": "para",
              "required": false
            },
            {
              "name": "P3RPLN02",
              "text": "VERY IMPORTANT: Each of these maps shows a different pilot planning the mission and estimating the time it will take the hiker to get to the package. ",
              "type": "para",
              "required": false
            },
            {
              "name": "P3RPLN03",
              "text": "The timing numbers you see shows the time the pilot estimates it will take the Hiker to get to the package.",
              "type": "para",
              "required": false
            },
            {
              "name": "P3RPLN04",
              "text": "Similarly, the penalty numbers you see shows the penalty the each pilot estimates the aircraft possibly hitting an obstacle or dropping the package on an obstacle.",
              "type": "para",
              "required": false
            },
            {
              "name": "P3RPLN05",
              "text": "There is one other thing you should know. The Hiker is unusually fit and agile and is able to walk faster and farther than most hikers.",
              "type": "para",
              "required": false
            }
          ]
        }
      ]
    },
    {
      "title": "Rules of the Mission",
      "pages": [
        {
          "title": "The mission rules are shown here and a new Tab that should have shown up in your browser.",
          "last_page": false,
          "elements": [
            {
              "name": "P3RRULQ",
              "text": "Do you see the new tab called 'Mission Rules'?",
              "type": "multiple_choice",
              "choices": [
                "True",
                "False"
              ],
              "required": true
            },
            {
              "name": "P3RRUL01",
              "text": "",
              "type": "file-html",
              "meta_data": {
                "fileName": "../P3_revealing_literacy_heroku/reveal_rules.html"
              },
              "required": false
            },
            {
              "name": "P3RRUL02",
              "text": "Rules",
              "type": "pop_up",
              "meta_data": {
                "url": "/static/P3_revealing_literacy_heroku/reveal_rules_popup.html",
                "tab_name": "Help"
              },
              "required": false
            }
          ]
        }
      ]
    },
    {
      "title": "Mission 1: Question Page 1 of 5",
      "pages": [
        {
          "title": "",
          "last_page": false,
          "elements": [
            {
              "name": "P3RQ0101A",
              "text": "",
              "type": "side_window",
              "meta_data": {
                "rightSidePct": 70,
                "url": "../static/P3_revealing_literacy_heroku/GreenT.html",
                "tab_name": "Help"
              },
              "required": false
            },
            {
              "name": "P3RQ010101",
              "text": "The maps on the right show two flight plans for dropping the package.",
              "type": "para",
              "required": false
            },
            {
              "name": "P3RQ0101",
              "text": "Which Flight plan is better according to the Mission rules?",
              "type": "multiple_choice",
              "choices": [
                "The plan in Flight 1 is better according to the Mission rules",
                "The plan in Flight 2 is better according to the Mission rules",
                "Neither plan is better according to the Mission rules"
              ],
              "required": true
            },
            {
              "name": "P3RQ0101T",
              "text": "Why did you choose that answer?",
              "type": "text",
              "required": true
            }
          ]
        }
      ]
    },
    {
      "title": "Mission 1: Question Page 2 of 5",
      "pages": [
        {
          "title": "",
          "last_page": false,
          "elements": [
            {
              "name": "P3RQ0102A",
              "text": "",
              "type": "side_window",
              "meta_data": {
                "rightSidePct": 70,
                "url": "../static/P3_revealing_literacy_heroku/GreenT_7.html",
                "tab_name": "Help"
              },
              "required": false
            },
            {
              "name": "P3RQ010201",
              "text": "Now the maps on the right show scores for the two flight plans.",
              "type": "para",
              "required": false
            },
            {
              "name": "P3RQ0102",
              "text": "Which Flight plan is better according to the Mission rules?",
              "type": "multiple_choice",
              "choices": [
                "The plan in Flight 1 is better according to the Mission rules",
                "The plan in Flight 2 is better according to the Mission rules",
                "Neither plan is better according to the Mission rules"
              ],
              "required": true
            }
          ]
        }
      ]
    },
    {
      "title": "Mission 1: Question Page 3 of 5",
      "pages": [
        {
          "title": "",
          "last_page": false,
          "elements": [
            {
              "name": "P3RQ0103E",
              "text": "",
              "type": "side_window",
              "meta_data": {
                "rightSidePct": 60,
                "url": "../static/P3_revealing_literacy_heroku/GreenT_7.html",
                "tab_name": "Help"
              },
              "required": false
            },
            {
              "name": "P3RQ0103A",
              "text": "True or False: Flight 1 shows the Hiker getting to the Package in under 120 minutes?",
              "type": "multiple_choice",
              "choices": [
                "True",
                "False"
              ],
              "required": false
            },
            {
              "name": "P3RQ0103B",
              "text": "True or False: Flight 1 has a penalty of over 100 points?",
              "type": "multiple_choice",
              "choices": [
                "True",
                "False"
              ],
              "required": false
            },
            {
              "name": "P3RQ0103BC",
              "text": "True or False: Flight 2 shows the Hiker getting to the Package in under 120 minutes?",
              "type": "multiple_choice",
              "choices": [
                "True",
                "False"
              ],
              "required": false
            },
            {
              "name": "P3RQ0103D",
              "text": "True or False: Flight 2 has a penalty of over 100 points?",
              "type": "multiple_choice",
              "choices": [
                "True",
                "False"
              ],
              "required": false
            },
            {
              "name": "P3RQ0103E",
              "text": "True or False: Flight 1 has lower penalty than Flight 2?",
              "type": "multiple_choice",
              "choices": [
                "True",
                "False"
              ],
              "required": false
            }
          ]
        }
      ]
    },
    {
      "title": "Mission 1: Question Page 4 of 5",
      "pages": [
        {
          "title": "",
          "last_page": false,
          "elements": [
            {
              "name": "P3RQ0104E",
              "text": "",
              "type": "side_window",
              "meta_data": {
                "rightSidePct": 60,
                "url": "../static/P3_revealing_literacy_heroku/GreenT_7.html",
                "tab_name": "Help"
              },
              "required": false
            },
            {
              "name": "P3RQ0104",
              "text": "Which flight plan has more risk for the package drop such as being dropped on an obstacle?",
              "type": "multiple_choice",
              "choices": [
                "The plan for Flight 1 has more risk to the package",
                "The plan for Flight 2 has more risk to the package",
                "Both plans have the same risk for the package"
              ],
              "required": true
            }
          ]
        }
      ]
    },
    {
      "title": "Mission 1: Question Page 5 of 5",
      "pages": [
        {
          "title": "",
          "last_page": false,
          "elements": [
            {
              "name": "P3RQ0105E",
              "text": "",
              "type": "side_window",
              "meta_data": {
                "rightSidePct": 60,
                "url": "../static/P3_revealing_literacy_heroku/GreenT_7.html",
                "tab_name": "Help"
              },
              "required": false
            },
            {
              "name": "P3RQ0105",
              "text": "Which flight plan has more risk to the aircraft such as flying close to an obstacle?",
              "type": "multiple_choice",
              "choices": [
                "The plan for Flight 1 has more risk to the aircraft",
                "The plan for Flight 2 has more risk to the aircraft",
                "Both plans have the same risk to the aircraft"
              ],
              "required": true
            }
          ]
        }
      ]
    },
    {
      "title": "Mission 2: Question Page 1 of 5",
      "pages": [
        {
          "title": "",
          "last_page": false,
          "elements": [
            {
              "name": "P3RQ0201A",
              "text": "",
              "type": "side_window",
              "meta_data": {
                "rightSidePct": 70,
                "url": "../static/P3_revealing_literacy_heroku/Canyon.html",
                "tab_name": "Help"
              },
              "required": false
            },
            {
              "name": "P3RQ020101",
              "text": "The maps on the right show two flight plans for dropping the package.",
              "type": "para",
              "required": false
            },
            {
              "name": "P3RQ0201",
              "text": "Which Flight plan is better according to the Mission rules?",
              "type": "multiple_choice",
              "choices": [
                "The plan in Flight 1 is better according to the Mission rules",
                "The plan in Flight 2 is better according to the Mission rules",
                "Neither plan is better according to the Mission rules"
              ],
              "required": true
            },
            {
              "name": "P3RQ0201T",
              "text": "Why did you choose that answer?",
              "type": "text",
              "required": true
            }
          ]
        }
      ]
    },
    {
      "title": "Mission 2: Question Page 2 of 5",
      "pages": [
        {
          "title": "",
          "last_page": false,
          "elements": [
            {
              "name": "P3RQ0201A",
              "text": "",
              "type": "side_window",
              "meta_data": {
                "rightSidePct": 70,
                "url": "../static/P3_revealing_literacy_heroku/Canyon_7.html",
                "tab_name": "Help"
              },
              "required": false
            },
            {
              "name": "P3RQ020101",
              "text": "Now the maps on the right show scores for the two flight plans.",
              "type": "para",
              "required": false
            },
            {
              "name": "P3RQ0201",
              "text": "Which Flight plan is better according to the Mission rules?",
              "type": "multiple_choice",
              "choices": [
                "The plan in Flight 1 is better according to the Mission rules",
                "The plan in Flight 2 is better according to the Mission rules",
                "Neither plan is better according to the Mission rules"
              ],
              "required": true
            }
          ]
        }
      ]
    },
    {
      "title": "Mission 2: Question Page 3 of 5",
      "pages": [
        {
          "title": "",
          "last_page": false,
          "elements": [
            {
              "name": "P3RQ0202E",
              "text": "",
              "type": "side_window",
              "meta_data": {
                "rightSidePct": 60,
                "url": "../static/P3_revealing_literacy_heroku/Canyon_7.html",
                "tab_name": "Help"
              },
              "required": false
            },
            {
              "name": "P3RQ0203A",
              "text": "True or False: Flight 1 shows the Hiker getting to the Package in under 120 minutes?",
              "type": "multiple_choice",
              "choices": [
                "True",
                "False"
              ],
              "required": false
            },
            {
              "name": "P3RQ0203B",
              "text": "True or False: Flight 1 has a penalty of over 100 points?",
              "type": "multiple_choice",
              "choices": [
                "True",
                "False"
              ],
              "required": false
            },
            {
              "name": "P3RQ0203BC",
              "text": "True or False: Flight 2 shows the Hiker getting to the Package in under 120 minutes?",
              "type": "multiple_choice",
              "choices": [
                "True",
                "False"
              ],
              "required": false
            },
            {
              "name": "P3RQ0203D",
              "text": "True or False: Flight 2 has a penalty of over 100 points?",
              "type": "multiple_choice",
              "choices": [
                "True",
                "False"
              ],
              "required": false
            },
            {
              "name": "P3RQ0203E",
              "text": "True or False: Flight 1 has lower penalty than Flight 2?",
              "type": "multiple_choice",
              "choices": [
                "True",
                "False"
              ],
              "required": false
            }
          ]
        }
      ]
    },
    {
      "title": "Mission 2: Question Page 4 of 5",
      "pages": [
        {
          "title": "",
          "last_page": false,
          "elements": [
            {
              "name": "P3RQ0204E",
              "text": "",
              "type": "side_window",
              "meta_data": {
                "rightSidePct": 60,
                "url": "../static/P3_revealing_literacy_heroku/Canyon_7.html",
                "tab_name": "Help"
              },
              "required": false
            },
            {
              "name": "P3RQ0204",
              "text": "Which flight plan has more risk for the package drop such as being dropped on an obstacle?",
              "type": "multiple_choice",
              "choices": [
                "The plan for Flight 1 has more risk to the package",
                "The plan for Flight 2 has more risk to the package",
                "Both plans have the same risk for the package"
              ],
              "required": true
            }
          ]
        }
      ]
    },
    {
      "title": "Mission 2: Question Page 5 of 5",
      "pages": [
        {
          "title": "",
          "last_page": false,
          "elements": [
            {
              "name": "P3RQ0205E",
              "text": "",
              "type": "side_window",
              "meta_data": {
                "rightSidePct": 60,
                "url": "../static/P3_revealing_literacy_heroku/Canyon_7.html",
                "tab_name": "Help"
              },
              "required": false
            },
            {
              "name": "P3RQ0205",
              "text": "Which flight plan has more risk to the aircraft such as flying close to an obstacle?",
              "type": "multiple_choice",
              "choices": [
                "The plan for Flight 1 has more risk to the aircraft",
                "The plan for Flight 2 has more risk to the aircraft",
                "Both plans have the same risk to the aircraft"
              ],
              "required": true
            }
          ]
        }
      ]
    },
    {
      "title": "Mission 3: Question Page 1 of 5",
      "pages": [
        {
          "title": "",
          "last_page": false,
          "elements": [
            {
              "name": "P3RQ0301A",
              "text": "",
              "type": "side_window",
              "meta_data": {
                "rightSidePct": 70,
                "url": "../static/P3_revealing_literacy_heroku/Picnic.html",
                "tab_name": "Help"
              },
              "required": false
            },
            {
              "name": "P3RQ030101",
              "text": "The maps on the right show two flight plans for dropping the package.",
              "type": "para",
              "required": false
            },
            {
              "name": "P3RQ0301",
              "text": "Which Flight plan is better according to the Mission rules?",
              "type": "multiple_choice",
              "choices": [
                "The plan in Flight 1 is better according to the Mission rules",
                "The plan in Flight 2 is better according to the Mission rules",
                "Neither plan is better according to the Mission rules"
              ],
              "required": true
            },
            {
              "name": "P3RQ0301T",
              "text": "Why did you choose that answer?",
              "type": "text",
              "required": true
            }
          ]
        }
      ]
    },
    {
      "title": "Mission 3: Question Page 2 of 5",
      "pages": [
        {
          "title": "",
          "last_page": false,
          "elements": [
            {
              "name": "P3RQ0302A",
              "text": "",
              "type": "side_window",
              "meta_data": {
                "rightSidePct": 70,
                "url": "../static/P3_revealing_literacy_heroku/Picnic_4.html",
                "tab_name": "Help"
              },
              "required": false
            },
            {
              "name": "P3RQ030201",
              "text": "Now the maps on the right show scores for the two flight plans.",
              "type": "para",
              "required": false
            },
            {
              "name": "P3RQ0302",
              "text": "Which Flight plan is better according to the Mission rules?",
              "type": "multiple_choice",
              "choices": [
                "The plan in Flight 1 is better according to the Mission rules",
                "The plan in Flight 2 is better according to the Mission rules",
                "Neither plan is better according to the Mission rules"
              ],
              "required": true
            }
          ]
        }
      ]
    },
    {
      "title": "Mission 3: Question Page 3 of 5",
      "pages": [
        {
          "title": "",
          "last_page": false,
          "elements": [
            {
              "name": "P3RQ0302E",
              "text": "",
              "type": "side_window",
              "meta_data": {
                "rightSidePct": 60,
                "url": "../static/P3_revealing_literacy_heroku/Picnic_4.html",
                "tab_name": "Help"
              },
              "required": false
            },
            {
              "name": "P3RQ0303A",
              "text": "True or False: Flight 1 shows the Hiker getting to the Package in under 90 minutes?",
              "type": "multiple_choice",
              "choices": [
                "True",
                "False"
              ],
              "required": false
            },
            {
              "name": "P3RQ0303B",
              "text": "True or False: Flight 1 has a penalty of over 100 points?",
              "type": "multiple_choice",
              "choices": [
                "True",
                "False"
              ],
              "required": false
            },
            {
              "name": "P3RQ0303BC",
              "text": "True or False: Flight 2 shows the Hiker getting to the Package in under 90 minutes?",
              "type": "multiple_choice",
              "choices": [
                "True",
                "False"
              ],
              "required": false
            },
            {
              "name": "P3RQ0303D",
              "text": "True or False: Flight 2 has a penalty of over 100 points?",
              "type": "multiple_choice",
              "choices": [
                "True",
                "False"
              ],
              "required": false
            },
            {
              "name": "P3RQ0303E",
              "text": "True or False: Flight 1 has lower penalty than Flight 2?",
              "type": "multiple_choice",
              "choices": [
                "True",
                "False"
              ],
              "required": false
            }
          ]
        }
      ]
    },
    {
      "title": "Mission 3: Question Page 4 of 5",
      "pages": [
        {
          "title": "",
          "last_page": false,
          "elements": [
            {
              "name": "P3RQ0304E",
              "text": "",
              "type": "side_window",
              "meta_data": {
                "rightSidePct": 60,
                "url": "../static/P3_revealing_literacy_heroku/Picnic.html",
                "tab_name": "Help"
              },
              "required": false
            },
            {
              "name": "P3RQ0304",
              "text": "Which flight plan has more risk for the package drop such as being dropped on an obstacle?",
              "type": "multiple_choice",
              "choices": [
                "The plan for Flight 1 has more risk to the package",
                "The plan for Flight 2 has more risk to the package",
                "Both plans have the same risk for the package"
              ],
              "required": true
            }
          ]
        }
      ]
    },
    {
      "title": "Mission 3: Question Page 5 of 5",
      "pages": [
        {
          "title": "",
          "last_page": false,
          "elements": [
            {
              "name": "P3RQ0305E",
              "text": "",
              "type": "side_window",
              "meta_data": {
                "rightSidePct": 60,
                "url": "../static/P3_revealing_literacy_heroku/Picnic_4.html",
                "tab_name": "Help"
              },
              "required": false
            },
            {
              "name": "P3RQ0305",
              "text": "Which flight plan has more risk to the aircraft such as flying close to an obstacle?",
              "type": "multiple_choice",
              "choices": [
                "The plan for Flight 1 has more risk to the aircraft",
                "The plan for Flight 2 has more risk to the aircraft",
                "Both plans have the same risk to the aircraft"
              ],
              "required": true
            }
          ]
        }
      ]
    },
    {
      "title": "Mission 4: Question Page 1 of 5",
      "pages": [
        {
          "title": "",
          "last_page": false,
          "elements": [
            {
              "name": "P3RQ0401A",
              "text": "",
              "type": "side_window",
              "meta_data": {
                "rightSidePct": 70,
                "url": "../static/P3_revealing_literacy_heroku/Island.html",
                "tab_name": "Help"
              },
              "required": false
            },
            {
              "name": "P3RQ040101",
              "text": "The maps on the right show two flight plans for dropping the package.",
              "type": "para",
              "required": false
            },
            {
              "name": "P3RQ0401",
              "text": "Which Flight plan is better according to the Mission rules?",
              "type": "multiple_choice",
              "choices": [
                "The plan in Flight 1 is better according to the Mission rules",
                "The plan in Flight 2 is better according to the Mission rules",
                "Neither plan is better according to the Mission rules"
              ],
              "required": true
            },
            {
              "name": "P3RQ0401T",
              "text": "Why did you choose that answer?",
              "type": "text",
              "required": true
            }
          ]
        }
      ]
    },
    {
      "title": "Mission 4: Question Page 2 of 5",
      "pages": [
        {
          "title": "",
          "last_page": false,
          "elements": [
            {
              "name": "P3RQ0402A",
              "text": "",
              "type": "side_window",
              "meta_data": {
                "rightSidePct": 70,
                "url": "../static/P3_revealing_literacy_heroku/Island_7.html",
                "tab_name": "Help"
              },
              "required": false
            },
            {
              "name": "P3RQ040201",
              "text": "Now the maps on the right show scores for the two flight plans.",
              "type": "para",
              "required": false
            },
            {
              "name": "P3RQ0402",
              "text": "Which Flight plan is better according to the Mission rules?",
              "type": "multiple_choice",
              "choices": [
                "The plan in Flight 1 is better according to the Mission rules",
                "The plan in Flight 2 is better according to the Mission rules",
                "Neither plan is better according to the Mission rules"
              ],
              "required": true
            }
          ]
        }
      ]
    },
    {
      "title": "Mission 4: Question Page 3 of 5",
      "pages": [
        {
          "title": "",
          "last_page": false,
          "elements": [
            {
              "name": "P3RQ0403E",
              "text": "",
              "type": "side_window",
              "meta_data": {
                "rightSidePct": 60,
                "url": "../static/P3_revealing_literacy_heroku/Island_7.html",
                "tab_name": "Help"
              },
              "required": false
            },
            {
              "name": "P3RQ0403A",
              "text": "True or False: Flight 1 shows the Hiker getting to the Package in under 120 minutes?",
              "type": "multiple_choice",
              "choices": [
                "True",
                "False"
              ],
              "required": false
            },
            {
              "name": "P3RQ0403B",
              "text": "True or False: Flight 1 has a penalty of over 100 points?",
              "type": "multiple_choice",
              "choices": [
                "True",
                "False"
              ],
              "required": false
            },
            {
              "name": "P3RQ0403BC",
              "text": "True or False: Flight 2 shows the Hiker getting to the Package in under 120 minutes?",
              "type": "multiple_choice",
              "choices": [
                "True",
                "False"
              ],
              "required": false
            },
            {
              "name": "P3RQ0403D",
              "text": "True or False: Flight 2 has a penalty of over 100 points?",
              "type": "multiple_choice",
              "choices": [
                "True",
                "False"
              ],
              "required": false
            },
            {
              "name": "P3RQ0403E",
              "text": "True or False: Flight 1 has lower penalty than Flight 2?",
              "type": "multiple_choice",
              "choices": [
                "True",
                "False"
              ],
              "required": false
            }
          ]
        }
      ]
    },
    {
      "title": "Mission 4: Question Page 4 of 5",
      "pages": [
        {
          "title": "",
          "last_page": false,
          "elements": [
            {
              "name": "P3RQ0404E",
              "text": "",
              "type": "side_window",
              "meta_data": {
                "rightSidePct": 60,
                "url": "../static/P3_revealing_literacy_heroku/Island_7.html",
                "tab_name": "Help"
              },
              "required": false
            },
            {
              "name": "P3RQ0404",
              "text": "Which flight plan has more risk for the package drop such as being dropped on an obstacle?",
              "type": "multiple_choice",
              "choices": [
                "The plan for Flight 1 has more risk to the package",
                "The plan for Flight 2 has more risk to the package",
                "Both plans have the same risk for the package"
              ],
              "required": true
            }
          ]
        }
      ]
    },
    {
      "title": "Mission 4: Question Page 5 of 5",
      "pages": [
        {
          "title": "",
          "last_page": false,
          "elements": [
            {
              "name": "P3RQ0405E",
              "text": "",
              "type": "side_window",
              "meta_data": {
                "rightSidePct": 60,
                "url": "../static/P3_revealing_literacy_heroku/Island_7.html",
                "tab_name": "Help"
              },
              "required": false
            },
            {
              "name": "P3RQ0405",
              "text": "Which flight plan has more risk to the aircraft such as flying close to an obstacle?",
              "type": "multiple_choice",
              "choices": [
                "The plan for Flight 1 has more risk to the aircraft",
                "The plan for Flight 2 has more risk to the aircraft",
                "Both plans have the same risk to the aircraft"
              ],
              "required": true
            }
          ]
        }
      ]
    },
    {
      "title": "Mission 5: Question Page 1 of 5",
      "pages": [
        {
          "title": "",
          "last_page": false,
          "elements": [
            {
              "name": "P3RQ0401A",
              "text": "",
              "type": "side_window",
              "meta_data": {
                "rightSidePct": 70,
                "url": "../static/P3_revealing_literacy_heroku/Valley.html",
                "tab_name": "Help"
              },
              "required": false
            },
            {
              "name": "P3RQ050101",
              "text": "The maps on the right show two flight plans for dropping the package.",
              "type": "para",
              "required": false
            },
            {
              "name": "P3RQ0501",
              "text": "Which Flight plan is better according to the Mission rules?",
              "type": "multiple_choice",
              "choices": [
                "The plan in Flight 1 is better according to the Mission rules",
                "The plan in Flight 2 is better according to the Mission rules",
                "Neither plan is better according to the Mission rules"
              ],
              "required": true
            },
            {
              "name": "P3RQ0501T",
              "text": "Why did you choose that answer?",
              "type": "text",
              "required": true
            }
          ]
        }
      ]
    },
    {
      "title": "Mission 5: Question Page 2 of 5",
      "pages": [
        {
          "title": "",
          "last_page": false,
          "elements": [
            {
              "name": "P3RQ0402A",
              "text": "",
              "type": "side_window",
              "meta_data": {
                "rightSidePct": 70,
                "url": "../static/P3_revealing_literacy_heroku/Valley_7.html",
                "tab_name": "Help"
              },
              "required": false
            },
            {
              "name": "P3RQ050201",
              "text": "Now the maps on the right show scores for the two flight plans.",
              "type": "para",
              "required": false
            },
            {
              "name": "P3RQ0502",
              "text": "Which Flight plan is better according to the Mission rules?",
              "type": "multiple_choice",
              "choices": [
                "The plan in Flight 1 is better according to the Mission rules",
                "The plan in Flight 2 is better according to the Mission rules",
                "Neither plan is better according to the Mission rules"
              ],
              "required": true
            }
          ]
        }
      ]
    },
    {
      "title": "Mission 5: Question Page 3 of 5",
      "pages": [
        {
          "title": "",
          "last_page": false,
          "elements": [
            {
              "name": "P3RQ0503E",
              "text": "",
              "type": "side_window",
              "meta_data": {
                "rightSidePct": 60,
                "url": "../static/P3_revealing_literacy_heroku/Valley_7.html",
                "tab_name": "Help"
              },
              "required": false
            },
            {
              "name": "P3RQ0503A",
              "text": "True or False: Flight 1 shows the Hiker getting to the Package in under 180 minutes?",
              "type": "multiple_choice",
              "choices": [
                "True",
                "False"
              ],
              "required": false
            },
            {
              "name": "P3RQ0503B",
              "text": "True or False: Flight 1 has a penalty of over 100 points?",
              "type": "multiple_choice",
              "choices": [
                "True",
                "False"
              ],
              "required": false
            },
            {
              "name": "P3RQ0503BC",
              "text": "True or False: Flight 2 shows the Hiker getting to the Package in under 180 minutes?",
              "type": "multiple_choice",
              "choices": [
                "True",
                "False"
              ],
              "required": false
            },
            {
              "name": "P3RQ0503D",
              "text": "True or False: Flight 2 has a penalty of over 100 points?",
              "type": "multiple_choice",
              "choices": [
                "True",
                "False"
              ],
              "required": false
            },
            {
              "name": "P3RQ0503E",
              "text": "True or False: Flight 1 has lower penalty than Flight 2?",
              "type": "multiple_choice",
              "choices": [
                "True",
                "False"
              ],
              "required": false
            }
          ]
        }
      ]
    },
    {
      "title": "Mission 5: Question Page 4 of 5",
      "pages": [
        {
          "title": "",
          "last_page": false,
          "elements": [
            {
              "name": "P3RQ0504E",
              "text": "",
              "type": "side_window",
              "meta_data": {
                "rightSidePct": 60,
                "url": "../static/P3_revealing_literacy_heroku/Valley_7.html",
                "tab_name": "Help"
              },
              "required": false
            },
            {
              "name": "P3RQ0504",
              "text": "Which flight plan has more risk for the package drop such as being dropped on an obstacle?",
              "type": "multiple_choice",
              "choices": [
                "The plan for Flight 1 has more risk to the package",
                "The plan for Flight 2 has more risk to the package",
                "Both plans have the same risk for the package"
              ],
              "required": true
            }
          ]
        }
      ]
    },
    {
      "title": "Mission 5: Question Page 5 of 5",
      "pages": [
        {
          "title": "",
          "last_page": false,
          "elements": [
            {
              "name": "P3RQ0505E",
              "text": "",
              "type": "side_window",
              "meta_data": {
                "rightSidePct": 60,
                "url": "../static/P3_revealing_literacy_heroku/Valley_7.html",
                "tab_name": "Help"
              },
              "required": false
            },
            {
              "name": "P3RQ0505",
              "text": "Which flight plan has more risk to the aircraft such as flying close to an obstacle?",
              "type": "multiple_choice",
              "choices": [
                "The plan for Flight 1 has more risk to the aircraft",
                "The plan for Flight 2 has more risk to the aircraft",
                "Both plans have the same risk to the aircraft"
              ],
              "required": true
            }
          ]
        }
      ]
    }
  ]
}

