{
  "name": "Study Scoring Content",
  "info": {},
  "instruments": [
    {
      "title": "Study Scoring Content",
      "pages": [
        {
          "title": "Scoring Practice",
          "last_page": false,
          "elements": [
            {
              "name": "SSPOVR01",
              "text": "In this session you will learn to use a set of rules for scoring the time delays and risk penalties made by a drone flying over a map.",
              "type": "file-html",
              "meta_data": {
                "fileName": "drone.html"
              },
              "required": false
            },
            {
              "name": "SSP1OVR02",
              "text": "You will see a number of Search and Rescue missions for dropping provisions to a hiker.",
              "type": "para",
              "required": false
            },
            {
              "name": "SSP1OVR02",
              "text": "For a number of missions, you will see two flights that have been flown differently and asked which is the better flight. ",
              "type": "para",
              "required": false
            },
            {
              "name": "SSP1OVR03",
              "text": "We will start by having you practice on comparing missions that were flown manually by two different human pilots.",
              "type": "para",
              "required": false
            }
          ]
        }
      ]
    },
    {
      "title": "Drone Missions",
      "pages": [
        {
          "title": "Many things can go wrong on a Mission",
          "last_page": false,
          "elements": [
            {
              "name": "SSP1MIS01",
              "text": "",
              "type": "file-html",
              "meta_data": {
                "fileName": "SSP_1_missions.html"
              },
              "required": false
            }
          ]
        }
      ]
    },
    {
      "title": "How to Compare Two Pilots Flying the Same Mission",
      "pages": [
        {
          "title": "",
          "last_page": false,
          "elements": [
            {
              "name": "SSP9CMP01",
              "text": "There are three outcomes: Win, Lose, or Draw.",
              "type": "para",
              "required": false
            },
            {
              "name": "SSP9CMP02",
              "text": "Any Pilot that takes longer than the Mission time limit of 240 (minutes) can not win.",
              "type": "para",
              "required": false
            },
            {
              "name": "SSP9CMP02",
              "text": "Any Pilot that scores 100 risk points or more can not win.",
              "type": "para",
              "required": false
            },
            {
              "name": "SSP9CMP03",
              "text": "For Pilots under the time limit, the Pilot with the lowest penalty wins.",
              "type": "para",
              "required": false
            },
            {
              "name": "SSP9CMP03",
              "text": "A draw can happen if both Pilots are under the time limit (240) and under the risk limit (100) and have the same risk penalty score.",
              "type": "para",
              "required": false
            },
            {
              "name": "SSP9CMP04",
              "text": "A draw can also happen if both Pilots are over either the time limit (240) or risk limit (100).",
              "type": "file-html",
              "meta_data": {
                "fileName": "SSP_1_comparing.html"
              },
              "required": false
            }
          ]
        }
      ]
    },
    {
      "title": "A word about the scores you will be working with",
      "pages": [
        {
          "title": "",
          "last_page": true,
          "elements": [
            {
              "name": "SSPSCR01",
              "text": "Every mission you see today will use the same scoring rules. ",
              "type": "para",
              "required": false
            },
            {
              "name": "SSPSCR05",
              "text": "We will next show you some missions for comparison practice.",
              "type": "para",
              "required": false
            }
          ]
        }
      ]
    },
    {
      "title": "What you will be asked to do",
      "pages": [
        {
          "title": "",
          "last_page": true,
          "elements": [
            {
              "name": "SSP9ASK01",
              "text": "You will be shown two flight plans that two human pilots will fly.",
              "type": "para",
              "required": false
            },
            {
              "name": "SSP9ASK02",
              "text": "Your job is to compare these pilot's flight routes and answer who you think will win.",
              "type": "para",
              "required": false
            },
            {
              "name": "SSP9ASK03",
              "text": "After you make your choice you will be shown the correct answer",
              "type": "para",
              "required": false
            },
            {
              "name": "SSP9ASK04",
              "text": "Press CONTINUE to go to begin the practice. ",
              "type": "para",
              "required": false
            }
          ]
        }
      ]
    },
    {
      "title": "Practice Mission 1 of 6",
      "pages": [
        {
          "title": "",
          "last_page": false,
          "elements": [
            {
              "name": "SSPP0101",
              "text": "In this mission, two pilots are manually flying the drone by taking routes using the lines of some roads in different ways.",
              "type": "para",
              "required": false
            },
            {
              "name": "SSPP01Q",
              "text": "Which Route wins?",
              "type": "multiple_choice",
              "choices": [
                "Route 1 wins",
                "Route 2 wins",
                "It is a draw "
              ],
              "required": true
            },
            {
              "name": "SSPP01K",
              "text": "Practice Mission",
              "type": "side_window",
              "meta_data": {
                "rightSidePct": 75,
                "url": "http://127.0.0.1:8008/?default_load=310104&user_mode=apercu_compare",
                "tab_name": "Help"
              },
              "required": false
            }
          ]
        }
      ]
    },
    {
      "title": "Results for Mission 1 ",
      "pages": [
        {
          "title": "",
          "last_page": false,
          "elements": [
            {
              "name": "SSPP01A01",
              "text": "In this mission, two pilots are manually flying the drone by taking routes using the lines of some roads in different ways.",
              "type": "para",
              "required": false
            },
            {
              "name": "SSPP01A02",
              "text": "Both Routes have times under the limit (240) and penalties under the limit (100)",
              "type": "para",
              "required": false
            },
            {
              "name": "SSPP01A02",
              "text": "Route 1 has a lower penalty than Route 2",
              "type": "para",
              "required": false
            },
            {
              "name": "SSPP01A02",
              "text": "This means Route 1 wins",
              "type": "para",
              "required": false
            },
            {
              "name": "SSPP01A",
              "text": "Practice Mission",
              "type": "side_window",
              "meta_data": {
                "rightSidePct": 75,
                "url": "http://127.0.0.1:8008/?default_load=310104&user_mode=apercu_none",
                "tab_name": "Help"
              },
              "required": false
            }
          ]
        }
      ]
    },
    {
      "title": "Practice Mission 2 of 6",
      "pages": [
        {
          "title": "",
          "last_page": false,
          "elements": [
            {
              "name": "SSPP0201",
              "text": "In this mission, two pilots are manually flying the drone by taking routes using the lines of some roads in different ways.",
              "type": "para",
              "required": false
            },
            {
              "name": "SSPP02Q",
              "text": "Which Route wins?",
              "type": "multiple_choice",
              "choices": [
                "Route 1 wins",
                "Route 2 wins",
                "It is a draw "
              ],
              "required": true
            },
            {
              "name": "SSPP02K",
              "text": "Practice Mission",
              "type": "side_window",
              "meta_data": {
                "rightSidePct": 75,
                "url": "http://127.0.0.1:8008/?default_load=310204&user_mode=apercu_compare",
                "tab_name": "Help"
              },
              "required": false
            }
          ]
        }
      ]
    },
    {
      "title": "Results for Mission 2 ",
      "pages": [
        {
          "title": "",
          "last_page": false,
          "elements": [
            {
              "name": "SSPP02A01",
              "text": "In this mission, two pilots are manually flying the drone by taking routes using the lines of some roads in different ways.",
              "type": "para",
              "required": false
            },
            {
              "name": "SSPP02A02",
              "text": "Both Routes have times under the limit (240) and penalties under the limit (100)",
              "type": "para",
              "required": false
            },
            {
              "name": "SSPP02A02",
              "text": "Route 1 has a lower penalty than Route 2",
              "type": "para",
              "required": false
            },
            {
              "name": "SSPP02A02",
              "text": "This means Route 1 wins",
              "type": "para",
              "required": false
            },
            {
              "name": "SSPP02A",
              "text": "Practice Mission",
              "type": "side_window",
              "meta_data": {
                "rightSidePct": 75,
                "url": "http://127.0.0.1:8008/?default_load=310204&user_mode=apercu_none",
                "tab_name": "Help"
              },
              "required": false
            }
          ]
        }
      ]
    },
    {
      "title": "Practice Mission 3 of 6",
      "pages": [
        {
          "title": "",
          "last_page": false,
          "elements": [
            {
              "name": "SSPP0301",
              "text": "In this mission, two Pilots are manually flying the drone to deliver the package to a Hiker in a small forest clearing.",
              "type": "para",
              "required": false
            },
           {
              "name": "SSPP0302",
              "text": "However, notice that the Pilots choose to drop their package at different altitudes.",
              "type": "para",
              "required": false
            },
            {
              "name": "SSPP03Q",
              "text": "Which Route wins?",
              "type": "multiple_choice",
              "choices": [
                "Route 1 wins",
                "Route 2 wins",
                "It is a draw "
              ],
              "required": true
            },
            {
              "name": "SSPP03K",
              "text": "Practice Mission",
              "type": "side_window",
              "meta_data": {
                "rightSidePct": 75,
                "url": "http://127.0.0.1:8008/?default_load=310304&user_mode=apercu_compare",
                "tab_name": "Help"
              },
              "required": false
            }
          ]
        }
      ]
    },
    {
      "title": "Results for Mission 3",
      "pages": [
        {
          "title": "",
          "last_page": false,
          "elements": [
            {
              "name": "SSPP03A01",
              "text": "In this mission, two Pilots are manually flying the drone to deliver the package to a Hiker in a small forest clearing, but from different altitudes.",
              "type": "para",
              "required": false
            },
            {
              "name": "SSPP03A02",
              "text": "Both Routes have times under the limit (240) and penalties under the limit (100)",
              "type": "para",
              "required": false
            },
            {
              "name": "SSPP03A02",
              "text": "Route 2 has a lower penalty than Route 1",
              "type": "para",
              "required": false
            },
            {
              "name": "SSPP03A02",
              "text": "This means Route 2 wins",
              "type": "para",
              "required": false
            },
            {
              "name": "SSPP03A",
              "text": "Practice Mission",
              "type": "side_window",
              "meta_data": {
                "rightSidePct": 75,
                "url": "http://127.0.0.1:8008/?default_load=310304&user_mode=apercu_none",
                "tab_name": "Help"
              },
              "required": false
            }
          ]
        }
      ]
    },
    {
      "title": "Practice Mission 4 of 6",
      "pages": [
        {
          "title": "",
          "last_page": false,
          "elements": [
            {
              "name": "SSPP0401",
              "text": "In this mission, two Pilots are manually flying the drone to deliver the package to a Hiker in a small forest clearing, but from different altitudes.",
              "type": "para",
              "required": false
            },
            {
              "name": "SSPP04Q",
              "text": "Which Route wins?",
              "type": "multiple_choice",
              "choices": [
                "Route 1 wins",
                "Route 2 wins",
                "It is a draw "
              ],
              "required": true
            },
            {
              "name": "SSPP04K",
              "text": "Practice Mission",
              "type": "side_window",
              "meta_data": {
                "rightSidePct": 75,
                "url": "http://127.0.0.1:8008/?default_load=310404&user_mode=apercu_compare",
                "tab_name": "Help"
              },
              "required": false
            }
          ]
        }
      ]
    },
    {
      "title": "Results for Mission 4 ",
      "pages": [
        {
          "title": "",
          "last_page": false,
          "elements": [
            {
              "name": "SSPP04A01",
              "text": "In this mission, two Pilots are manually flying the drone to deliver the package to a Hiker in a small forest clearing, but from different altitudes.",
              "type": "para",
              "required": false
            },
            {
              "name": "SSPP04A02",
              "text": "Both Routes have times under the limit (240)",
              "type": "para",
              "required": false
            },
            {
              "name": "SSPP04A02",
              "text": "However, Route 1 has a penalty greater than 100",
              "type": "para",
              "required": false
            },
            {
              "name": "SSPP04A02",
              "text": "This means Route 2 wins",
              "type": "para",
              "required": false
            },
            {
              "name": "SSPP04A",
              "text": "Practice Mission",
              "type": "side_window",
              "meta_data": {
                "rightSidePct": 75,
                "url": "http://127.0.0.1:8008/?default_load=310404&user_mode=apercu_none",
                "tab_name": "Help"
              },
              "required": false
            }
          ]
        }
      ]
    },
    {
      "title": "Practice Mission 5 of 5",
      "pages": [
        {
          "title": "",
          "last_page": false,
          "elements": [
            {
              "name": "SSPP0501",
              "text": "In this mission, two pilots are manually flying the drone into a remote area.",
              "type": "para",
              "required": false
            },
            {
              "name": "SSPP0502",
              "text": "One Pilot follows a road with a washed out bridge all the way to the Hiker.",
              "type": "para",
              "required": false
            },
            {
              "name": "SSPP0503",
              "text": "The other Pilot heads towards some mountains, across open grassland, and then picks up the road to the Hiker.",
              "type": "para",
              "required": false
            },
            {
              "name": "SSPP05Q",
              "text": "Which Route wins?",
              "type": "multiple_choice",
              "choices": [
                "Route 1 wins",
                "Route 2 wins",
                "It is a draw "
              ],
              "required": true
            },
            {
              "name": "SSPP05K",
              "text": "Practice Mission",
              "type": "side_window",
              "meta_data": {
                "rightSidePct": 75,
                "url": "http://127.0.0.1:8008/?default_load=310504&user_mode=apercu_compare",
                "tab_name": "Help"
              },
              "required": false
            }
          ]
        }
      ]
    },
    {
      "title": "Results for Mission 5 ",
      "pages": [
        {
          "title": "",
          "last_page": false,
          "elements": [
            {
              "name": "SSPP05A01",
              "text": "In this mission, two pilots are manually flying the drone into a remote area.",
              "type": "para",
              "required": false
            },
            {
              "name": "SSPP05A02",
              "text": "Both Routes have penalties under the limit (100)",
              "type": "para",
              "required": false
            },
            {
              "name": "SSPP05A02",
              "text": "Route 1 is over the allowed time limit (240)",
              "type": "para",
              "required": false
            },
            {
              "name": "SSPP05A02",
              "text": "This means Route 2 wins",
              "type": "para",
              "required": false
            },
            {
              "name": "SSPP05A",
              "text": "Practice Mission",
              "type": "side_window",
              "meta_data": {
                "rightSidePct": 75,
                "url": "http://127.0.0.1:8008/?default_load=310504&user_mode=apercu_none",
                "tab_name": "Help"
              },
              "required": false
            }
          ]
        }
      ]
    }
  ]
}



