{
  "name": "Study Complete",
  "info": {},
  "instruments": [
    {
      "title": "All done, Thanks!",
      "name": "complete",
      "pages": [
        {
          "title": "",
          "last_page": true,
          "elements": [
            {
              "name": "Completion",
              "text": "Thank you for your participation.",
              "type": "para",
              "required": false
            }
          ]
        }
      ]
    }
  ]
}
