{
  "name": "Study Sequence Content",
  "info": {},
  "instruments": [
    {
      "title": "Mission Planning",
      "pages": [
        {
          "title": "",
          "last_page": false,
          "elements": [
            {
              "name": "P3PI0101",
              "text": "We will be showing you a number of pairs of maps to consider.",
              "type": "para",
              "required": false
            },
            {
              "name": "P3PI0101",
              "text": "Here are the first maps we want you to consider.",
              "type": "para",
              "required": false
            },
            {
              "name": "P3PI0102",
              "text": "The time limit for the Hiker to retrieve the package is: 120 Minutes",
              "type": "para",
              "required": false
            },
            {
              "name": "P3PI0103",
              "text": "The penalty limit for the mission is: 100 Points",
              "type": "para",
              "required": false
            },
            {
              "name": "P3PI0106",
              "text": "TIP: These maps are interactive. You can click and drag on them to reveal more information. Try moving the mission time control below the maps.",
              "type": "para",
              "required": false
            },
            {
              "name": "P3PI0106",
              "text": "Press CONTINUE when you are ready to answer some questions about these drones.",
              "type": "para",
              "required": false
            },
            {
              "name": "P3PI01QK",
              "text": "Your First Mission",
              "type": "side_window",
              "meta_data": {
                "rightSidePct": 50,
                "url": "http://127.0.0.1:8008/?default_load=985145&user_mode=apercu_compare",
                "tab_name": "Help"
              },
              "required": false
            }
          ]
        }
      ]
    },
    {
      "title": "Mission 1 of 10",
      "pages": [
        {
          "title": "Time limit for this above average Hiker: 120 Minutes. Penalty limit: 100 points",
          "last_page": false,
          "elements": [
            {
              "name": "P3O01Q",
              "text": "Which plan wins?",
              "type": "multiple_choice",
              "choices": [
                "Drone 1 wins",
                "Drone 2 wins",
                "It is a tie "
              ],
              "required": true
            },
            {
              "name": "P3O01CQ",
              "text": "In this mission, how confident are you that you picked the correct answer?",
              "type": "slider",
              "meta_data": {
                "showValue": true,
                "min": 0,
                "max": 100,
                "startValue": 50,
                "valueChar": "%",
                "labels": {
                  "0": "Not confident at all",
                  "100": "Totally confident"
                },
                "required": true
              }
            },
            {
              "name": "P3O01K",
              "text": "Your next Mission",
              "type": "side_window",
              "meta_data": {
                "rightSidePct": 66,
                "url": "https://klarigo.herokuapp.com/?default_load=985145&user_mode=apercu_compare",
                "tab_name": "Help"
              },
              "required": false
            }
          ]
        }
      ]
    },
    {
      "title": "Mission 1: The Drones tie.",
      "pages": [
        {
          "title": "Time limit for this above average Hiker: 120 Minutes. Penalty limit: 100 points.",
          "last_page": false,
          "elements": [
            {
              "name": "P3O01A01Q",
              "text": "True or False: Drone 2’s plan has lower risk than Drone 1’s plan",
              "type": "multiple_choice",
              "choices": [
                "True",
                "False"
              ],
              "required": true
            },
             {
              "name": "P3O01AK",
              "text": "Your Next Mission",
              "type": "side_window",
              "meta_data": {
                "rightSidePct": 66,
                "url": "https://klarigo.herokuapp.com/?default_load=985145&user_mode=apercu_all",
                "tab_name": "Help"
              },
              "required": false
            }
          ]
        }
      ]
    },
    {
      "title": "Mission 2 of 10",
      "pages": [
        {
          "title": "Time limit for this above average Hiker: 120 Minutes; Penalty limit: 100 points",
          "last_page": false,
          "elements": [
            {
              "name": "P3O02Q",
              "text": "Which plan wins?",
              "type": "multiple_choice",
              "choices": [
                "Drone 1 wins",
                "Drone 2 wins",
                "It is a tie "
              ],
              "required": true
            },
            {
              "name": "P3O02CQ",
              "text": "In this mission, how confident are you that you picked the correct answer?",
              "type": "slider",
              "meta_data": {
                "showValue": true,
                "min": 0,
                "max": 100,
                "startValue": 50,
                "valueChar": "%",
                "labels": {
                  "0": "Not confident at all",
                  "100": "Totally confident"
                },
                "required": true
              }
            },
            {
              "name": "P3O02QK",
              "text": "Your next Mission",
              "type": "side_window",
              "meta_data": {
                "rightSidePct": 66,
                "url": "https://klarigo.herokuapp.com/?default_load=985045&user_mode=apercu_compare",
                "tab_name": "Help"
              },
              "required": false
            }
          ]
        }
      ]
    },
    {
      "title": "Mission 2: Drone 2's plan is better.",
      "pages": [
        {
          "title": "Time limit for this above average Hiker: 120 Minutes. Penalty limit: 100 points",
          "last_page": false,
          "elements": [
           {
              "name": "P3O02A01",
              "text": "TIP: You may interact with the information on the right. Try clicking the Craft Safety Checkbox",
              "type": "file-html",
              "meta_data": {
                "fileName": "tip.html"
              },
              "required": false
            },
            {
              "name": "P3O02A01Q",
              "text": "True or False: Drone 2’s plan has lower risk than Drone 1’s plan",
              "type": "multiple_choice",
              "choices": [
                "True",
                "False"
              ],
              "required": true
            },
            {
              "name": "P3O02AK",
              "text": "Your Next Mission",
              "type": "side_window",
              "meta_data": {
                "rightSidePct": 66,
                "url": "https://klarigo.herokuapp.com/?default_load=985045&user_mode=apercu_all",
                "tab_name": "Help"
              },
              "required": false
            }
          ]
        }
      ]
    },
    {
      "title": "Mission 3 of 10",
      "pages": [
        {
          "title": "Time limit for this above average Hiker: 120 Minutes; Penalty limit: 100 points.",
          "last_page": false,
          "elements": [
            {
              "name": "P3O03Q",
              "text": "Which plan wins?",
              "type": "multiple_choice",
              "choices": [
                "Drone 1 wins",
                "Drone 2 wins",
                "It is a tie "
              ],
              "required": true
            },
            {
              "name": "P3O03CQ",
              "text": "In this mission, how confident are you that you picked the correct answer?",
              "type": "slider",
              "meta_data": {
                "showValue": true,
                "min": 0,
                "max": 100,
                "startValue": 50,
                "valueChar": "%",
                "labels": {
                  "0": "Not confident at all",
                  "100": "Totally confident"
                },
                "required": true
              }
            },
            {
              "name": "P3O03QK",
              "text": "Your next Mission",
              "type": "side_window",
              "meta_data": {
                "rightSidePct": 66,
                "url": "https://klarigo.herokuapp.com/?default_load=985345&user_mode=apercu_compare",
                "tab_name": "Help"
              },
              "required": false
            }
          ]
        }
      ]
    },
    {
      "title": "Mission 3: Drone 2's plan is better ",
      "pages": [
        {
          "title": "Time limit for this above average Hiker: 120 Minutes. Penalty limit: 100 points",
          "last_page": false,
          "elements": [
            {
              "name": "P3O03A01Q",
              "text": "True or False: Drone 2’s plan has lower risk than Drone 1’s plan",
              "type": "multiple_choice",
              "choices": [
                "True",
                "False"
              ],
              "required": true
            },
            {
              "name": "P3O03AK",
              "text": "Your Next Mission",
              "type": "side_window",
              "meta_data": {
                "rightSidePct": 66,
                "url": "https://klarigo.herokuapp.com/?default_load=985345&user_mode=apercu_all",
                "tab_name": "Help"
              },
              "required": false
            }
          ]
        }
      ]
    },
    {
      "title": "Mission 4 of 10",
      "pages": [
        {
          "title": "Time limit for this above average Hiker: 120 Minutes; Penalty limit: 100 points.",
          "last_page": false,
          "elements": [
            {
              "name": "P3O04Q",
              "text": "Which plan wins?",
              "type": "multiple_choice",
              "choices": [
                "Drone 1 wins",
                "Drone 2 wins",
                "It is a tie "
              ],
              "required": true
            },
            {
              "name": "P3O04CQ",
              "text": "In this mission, how confident are you that you picked the correct answer?",
              "type": "slider",
              "meta_data": {
                "showValue": true,
                "min": 0,
                "max": 100,
                "startValue": 50,
                "valueChar": "%",
                "labels": {
                  "0": "Not confident at all",
                  "100": "Totally confident"
                },
                "required": true
              }
            },
            {
              "name": "P3O04QK",
              "text": "Your next Mission",
              "type": "side_window",
              "meta_data": {
                "rightSidePct": 66,
                "url": "https://klarigo.herokuapp.com/?default_load=984045&user_mode=apercu_compare",
                "tab_name": "Help"
              },
              "required": false
            }
          ]
        }
      ]
    },
    {
      "title": "Mission 4: The Drones tie.",
      "pages": [
        {
          "title": "Time limit for this above average Hiker: 120 Minutes; Penalty limit: 100 points",
          "last_page": false,
          "elements": [
            {
              "name": "P3O04A01",
              "text": "Please answer some questions about what you see here.",
              "type": "para",
              "required": false
            },
            {
              "name": "P3O04A01Q",
              "text": "True or False: Drone 2’s plan has lower risk than Drone 1’s plan",
              "type": "multiple_choice",
              "choices": [
                "True",
                "False"
              ],
              "required": true
            },
            {
              "name": "P3O04AK",
              "text": "Your Next Mission",
              "type": "side_window",
              "meta_data": {
                "rightSidePct": 66,
                "url": "https://klarigo.herokuapp.com/?default_load=984045&user_mode=apercu_all",
                "tab_name": "Help"
              },
              "required": false
            }
          ]
        }
      ]
    },
    {
      "title": "Mission 5 of 10",
      "pages": [
        {
          "title": "Time limit for this above average Hiker: 120 Minutes; Penalty limit: 100 points.",
          "last_page": false,
          "elements": [
            {
              "name": "P3O05Q",
              "text": "Which plan wins?",
              "type": "multiple_choice",
              "choices": [
                "Drone 1 wins",
                "Drone 2 wins",
                "It is a tie "
              ],
              "required": true
            },
            {
              "name": "P3O05CQ",
              "text": "In this mission, how confident are you that you picked the correct answer?",
              "type": "slider",
              "meta_data": {
                "showValue": true,
                "min": 0,
                "max": 100,
                "startValue": 50,
                "valueChar": "%",
                "labels": {
                  "0": "Not confident at all",
                  "100": "Totally confident"
                },
                "required": true
              }
            },
            {
              "name": "P3O05QK",
              "text": "Your next Mission",
              "type": "side_window",
              "meta_data": {
                "rightSidePct": 66,
                "url": "https://klarigo.herokuapp.com/?default_load=984145&user_mode=apercu_compare",
                "tab_name": "Help"
              },
              "required": false
            }
          ]
        }
      ]
    },
    {
      "title": "Mission 5: Drone 2's plan is better.",
      "pages": [
        {
          "title": "Time limit for this above average Hiker: 120 Minutes; Penalty limit: 100 points",
          "last_page": false,
          "elements": [
            {
              "name": "P3O05A01",
              "text": "Please answer some questions about what you see here.",
              "type": "para",
              "required": false
            },
            {
              "name": "P3O05A01Q",
              "text": "True or False: Drone 2’s plan has lower risk than Drone 1’s plan",
              "type": "multiple_choice",
              "choices": [
                "True",
                "False"
              ],
              "required": true
            },
            {
              "name": "P3O05AK",
              "text": "Your Next Mission",
              "type": "side_window",
              "meta_data": {
                "rightSidePct": 66,
                "url": "https://klarigo.herokuapp.com/?default_load=984145&user_mode=apercu_all",
                "tab_name": "Help"
              },
              "required": false
            }
          ]
        }
      ]
    },
    {
      "title": "Mission 6 of 10",
      "pages": [
        {
          "title": "Time limit for this above average Hiker: 120 Minutes; Penalty limit: 100 points.",
          "last_page": false,
          "elements": [
            {
              "name": "P3O06Q",
              "text": "Which plan wins?",
              "type": "multiple_choice",
              "choices": [
                "Drone 1 wins",
                "Drone 2 wins",
                "It is a tie "
              ],
              "required": true
            },
            {
              "name": "P3O06CQ",
              "text": "In this mission, how confident are you that you picked the correct answer?",
              "type": "slider",
              "meta_data": {
                "showValue": true,
                "min": 0,
                "max": 100,
                "startValue": 50,
                "valueChar": "%",
                "labels": {
                  "0": "Not confident at all",
                  "100": "Totally confident"
                },
                "required": true
              }
            },
            {
              "name": "P3O06QK",
              "text": "Your next Mission",
              "type": "side_window",
              "meta_data": {
                "rightSidePct": 66,
                "url": "https://klarigo.herokuapp.com/?default_load=984245&user_mode=apercu_compare",
                "tab_name": "Help"
              },
              "required": false
            }
          ]
        }
      ]
    },
    {
      "title": "Mission 6: Drone 2's plan is better",
      "pages": [
        {
          "title": "Time limit for this above average Hiker: 120 Minutes; Penalty limit: 100 points",
          "last_page": false,
          "elements": [
            {
              "name": "P3O06A01Q",
              "text": "True or False: Drone 2’s plan has lower risk than Drone 1’s plan",
              "type": "multiple_choice",
              "choices": [
                "True",
                "False"
              ],
              "required": true
            },
            {
              "name": "P3O06AK",
              "text": "Your Next Mission",
              "type": "side_window",
              "meta_data": {
                "rightSidePct": 66,
                "url": "https://klarigo.herokuapp.com/?default_load=984245&user_mode=apercu_all",
                "tab_name": "Help"
              },
              "required": false
            }
          ]
        }
      ]
    },
    {
      "title": "Mission 7 of 10",
      "pages": [
        {
          "title": "Time limit for this above average Hiker: 120 Minutes; Penalty limit: 100 points.",
          "last_page": false,
          "elements": [
            {
              "name": "P3O07Q",
              "text": "Which plan wins?",
              "type": "multiple_choice",
              "choices": [
                "Drone 1 wins",
                "Drone 2 wins",
                "It is a tie "
              ],
              "required": true
            },
            {
              "name": "P3O07CQ",
              "text": "In this mission, how confident are you that you picked the correct answer?",
              "type": "slider",
              "meta_data": {
                "showValue": true,
                "min": 0,
                "max": 100,
                "startValue": 50,
                "valueChar": "%",
                "labels": {
                  "0": "Not confident at all",
                  "100": "Totally confident"
                },
                "required": true
              }
            },
            {
              "name": "P3O07QK",
              "text": "Your next Mission",
              "type": "side_window",
              "meta_data": {
                "rightSidePct": 66,
                "url": "https://klarigo.herokuapp.com/?default_load=983145&user_mode=apercu_compare",
                "tab_name": "Help"
              },
              "required": false
            }
          ]
        }
      ]
    },
    {
      "title": "Mission 7: Drone 2's plan is better",
      "pages": [
        {
          "title": "Time limit for this above average Hiker: 120 Minutes; Penalty limit: 100 points",
          "last_page": false,
          "elements": [
            {
              "name": "P3O07A01Q",
              "text": "True or False: Drone 2’s plan has lower risk than Drone 1’s plan",
              "type": "multiple_choice",
              "choices": [
                "True",
                "False"
              ],
              "required": true
            },
            {
              "name": "P3O07AK",
              "text": "Your Next Mission",
              "type": "side_window",
              "meta_data": {
                "rightSidePct": 66,
                "url": "https://klarigo.herokuapp.com/?default_load=983145&user_mode=apercu_all",
                "tab_name": "Help"
              },
              "required": false
            }
          ]
        }
      ]
    },
    {
      "title": "Mission 8 of 10",
      "pages": [
        {
          "title": "Time limit for this above average Hiker: 120 Minutes; Penalty limit: 100 points.",
          "last_page": false,
          "elements": [
            {
              "name": "P3O08Q",
              "text": "Which plan wins?",
              "type": "multiple_choice",
              "choices": [
                "Drone 1 wins",
                "Drone 2 wins",
                "It is a tie "
              ],
              "required": true
            },
            {
              "name": "P3O08CQ",
              "text": "In this mission, how confident are you that you picked the correct answer?",
              "type": "slider",
              "meta_data": {
                "showValue": true,
                "min": 0,
                "max": 100,
                "startValue": 50,
                "valueChar": "%",
                "labels": {
                  "0": "Not confident at all",
                  "100": "Totally confident"
                },
                "required": true
              }
            },
            {
              "name": "P3O08QK",
              "text": "Your next Mission",
              "type": "side_window",
              "meta_data": {
                "rightSidePct": 66,
                "url": "https://klarigo.herokuapp.com/?default_load=983245&user_mode=apercu_compare",
                "tab_name": "Help"
              },
              "required": false
            }
          ]
        }
      ]
    },
    {
      "title": "Mission 8: Drone 2's plan is better.",
      "pages": [
        {
          "title": "Time limit for this above average Hiker: 120 Minutes; Penalty limit: 100 points",
          "last_page": false,
          "elements": [
            {
              "name": "P3O08A01Q",
              "text": "True or False: Drone 2’s plan has lower risk than Drone 1’s plan",
              "type": "multiple_choice",
              "choices": [
                "True",
                "False"
              ],
              "required": true
            },
            {
              "name": "P3O08AK",
              "text": "Your Next Mission",
              "type": "side_window",
              "meta_data": {
                "rightSidePct": 66,
                "url": "https://klarigo.herokuapp.com/?default_load=983245&user_mode=apercu_all",
                "tab_name": "Help"
              },
              "required": false
            }
          ]
        }
      ]
    },
    {
      "title": "Mission 9 of 10",
      "pages": [
        {
          "title": "Time limit for this above average Hiker: 120 Minutes; Penalty limit: 100 points.",
          "last_page": false,
          "elements": [
            {
              "name": "P3O09Q",
              "text": "Which plan wins?",
              "type": "multiple_choice",
              "choices": [
                "Drone 1 wins",
                "Drone 2 wins",
                "It is a tie "
              ],
              "required": true
            },
            {
              "name": "P3O09CQ",
              "text": "In this mission, how confident are you that you picked the correct answer?",
              "type": "slider",
              "meta_data": {
                "showValue": true,
                "min": 0,
                "max": 100,
                "startValue": 50,
                "valueChar": "%",
                "labels": {
                  "0": "Not confident at all",
                  "100": "Totally confident"
                },
                "required": true
              }
            },
            {
              "name": "P3O09QK",
              "text": "Your next Mission",
              "type": "side_window",
              "meta_data": {
                "rightSidePct": 66,
                "url": "https://klarigo.herokuapp.com/?default_load=983045&user_mode=apercu_compare",
                "tab_name": "Help"
              },
              "required": false
            }
          ]
        }
      ]
    },
    {
      "title": "Mission 9: The Drones tie.",
      "pages": [
        {
          "title": "Time limit for this above average Hiker: 120 Minutes; Penalty limit: 100 points",
          "last_page": false,
          "elements": [
            {
              "name": "P3O09A01Q",
              "text": "True or False: Drone 2’s plan has lower risk than Drone 1’s plan",
              "type": "multiple_choice",
              "choices": [
                "True",
                "False"
              ],
              "required": true
            },
            {
              "name": "P3O09AK",
              "text": "Your Next Mission",
              "type": "side_window",
              "meta_data": {
                "rightSidePct": 66,
                "url": "https://klarigo.herokuapp.com/?default_load=983145&user_mode=apercu_all",
                "tab_name": "Help"
              },
              "required": false
            }
          ]
        }
      ]
    },
    {
      "title": "Mission 10 of 10",
      "pages": [
        {
          "title": "Time limit for this above average Hiker: 120 Minutes. Penalty limit: 100 points",
          "last_page": false,
          "elements": [
            {
              "name": "P3O10Q",
              "text": "Look at these two Flight plans to the right. Which plan wins?",
              "type": "multiple_choice",
              "choices": [
                "Drone 1 wins",
                "Drone 2 wins",
                "It is a tie "
              ],
              "required": true
            },
            {
              "name": "P3O10CQ",
              "text": "In this mission, how confident are you that you picked the correct answer?",
              "type": "slider",
              "meta_data": {
                "showValue": true,
                "min": 0,
                "max": 100,
                "startValue": 50,
                "valueChar": "%",
                "labels": {
                  "0": "Not confident at all",
                  "100": "Totally confident"
                },
                "required": true
              }
            },
            {
              "name": "P3O10QK",
              "text": "Your First Mission",
              "type": "side_window",
              "meta_data": {
                "rightSidePct": 50,
                "url": "https://klarigo.herokuapp.com/?default_load=992045&user_mode=apercu_compare",
                "tab_name": "Help"
              },
              "required": false
            }
          ]
        }
      ]
    },
    {
      "title": "Mission 10: Drone 2's plan is better",
      "pages": [
        {
          "title": "Time limit for this above average Hiker: 120 Minutes. Penalty limit: 100 points",
          "last_page": false,
          "elements": [
            {
              "name": "P3O10A01",
              "text": "The drones tie. Please answer some questions about what you see here.",
              "type": "para",
              "required": false
            },
            {
              "name": "P3O10A01Q",
              "text": "True or False: Drone 2’s plan has lower risk than Drone 1’s plan",
              "type": "multiple_choice",
              "choices": [
                "True",
                "False"
              ],
              "required": true
            },
            {
              "name": "P3O10AK",
              "text": "Your Next Mission",
              "type": "side_window",
              "meta_data": {
                "rightSidePct": 66,
                "url": "https://klarigo.herokuapp.com/?default_load=992045&user_mode=apercu_all",
                "tab_name": "Help"
              },
              "required": false
            }
          ]
        }
      ]
    },
    {
      "title": "End of this Mission Sequence",
      "pages": [
        {
          "title": "",
          "last_page": false,
          "elements": [
            {
              "name": "P3OEND",
              "text": "This concludes this mission sequence, please answer the following questions about these missions.",
              "type": "para",
              "required": false
            }
          ]
        }
      ]
    }
  ]
}



