
{
  "name": "Study Set",
  "info": {},
  "instruments": [
    {
      "title": "Please answer a question about the mission shown in the Klarigo tab",
      "pages": [
        {
          "title": "Which route would this drone think has the lowest penalty?",
          "elements": [
            {
              "name": "TPT_Show_astar_157_all",
              "text": "",
              "type": "pop_up",
              "meta_data": {
                "url": "https://klarigo.herokuapp.com/?default_load=20214157&user_mode=apercu_compare"
              },
              "required": false
            },
            {
              "name": "TPT_Q_astar_157_all_Q",
              "text": "Choose one:",
              "type": "multiple_choice",
              "choices": [
                "Route 1",
                "Route 2"
              ],
              "required": true
            }
          ]
        }
      ]
    },
    {
      "title": "Let's look at the answer",
      "pages": [
        {
          "title": "Look at which route this drone thinks is better and why that might be.",
          "elements": [
            {
              "name": "TPT_A_astar_157_all",
              "text": "",
              "type": "pop_up",
              "meta_data": {
                "url": "https://klarigo.herokuapp.com/?default_load=20214157&user_mode=apercu_all"
              },
              "required": false
            }
          ]
        }
      ]
    }
  ]
}
