{
  "name": "Search and Rescue Study",
  "info": {
    "popups_required": true,
    "show_score": true
  },
  "instruments": [
    {
      "title": "consent",
      "type": "include",
      "study_dir": "consent3"
    },
    {
      "title": "introduction",
      "type": "include",
      "study_dir": "klarigo_school_8A_content_0_intro_heroku"
    },
    {
      "title": "example",
      "type": "include",
      "study_dir": "klarigo_school_8A_with_explanation_example_heroku"
    },
    {
      "title": "content",
      "type": "include",
      "study_dir": "P3E8A_pilot_sequence_with_explanation_heroku"
    },
    {
      "title": "survey",
      "type": "include",
      "study_dir": "P3E8AX_postsurvey"
    },
    {
      "title": "survey8",
      "type": "include",
      "study_dir": "P3E8ATX_trust_postsurvey"
    },
    {
      "title": "complete",
      "type": "include",
      "study_dir": "complete"
    }
  ]
}

