{
  "name": "Search and Rescue Study",
  "info": {},
  "instruments": [
    {
      "title": "consent",
      "type": "include",
      "study_dir": "consent"
    },
    {
      "title": "content",
      "type": "include",
      "study_dir": "study_scoring_practice_heroku"
    },
    {
      "title": "test",
      "type": "include",
      "study_dir": "P3_study_sequence_with_expl_heroku"
    },
    {
      "title": "survey",
      "type": "include",
      "study_dir": "FSB_postsurvey"
    },
    {
      "title": "complete",
      "type": "include",
      "study_dir": "complete"
    }
  ]
}



