{
  "name": "Study Instructions",
  "info": {},
  "instruments": [
    {
      "title": "Introduction",
      "pages": [
        {
          "title": "Search and Rescue using a Smart Drone",
          "last_page": false,
          "elements": [
            {
              "name": "Intro_SAR1",
              "text": "In this Study you will see images of a drone flying over a map.  These drones fly like airplanes, not helicopters. They are called fixed wing drones, and use artificial intelligence to fly missions. They look like the drone in the picture below.",
              "type": "file-html",
              "meta_data": {
                "fileName": "drone.html"
              },
              "required": false
            },
            {
              "name": "Intro_SAR2",
              "text": "A mission consists of flying from a starting point to a place to drop a package of rescue supplies to a lost hiker. The drone then continues on to an end point of the mission. In this Study, the start and end points are given to the drone. The location of the hiker is known also, but the drone has to pick a drop point.",
              "type": "para",
              "required": false
            },
            {
              "name": "Intro_SAR3",
              "text": "Press CONTINUE to go to the next page. ",
              "type": "para",
              "required": false
            }
          ]
        }
      ]
    },
    {
      "title": "Using Web Browser Tabs",
      "pages": [
        {
          "title": "Using Web Browser Tabs",
          "elements": [
            {
              "name": "Intro_TabInst1",
              "text": "Sometimes hitting CONTINUE will take you to a new Web Browswer Tab. This will look something like the following, though the number of tabs may vary:",
              "type": "file-html",
              "meta_data": {
                "fileName": "apercu_tab_test.html"
              },
              "required": true
            },
            {
              "name": "Intro_TabInst3",
              "text": "You may click between tabs however you want, but do not close them until the study is done. ",
              "type": "para",
              "required": false
            },
            {
              "name": "Intro_TabInst4",
              "text": "When done reading the information in a tab, you should return to the main COGLE Survey tab to continue the study. ",
              "type": "para",
              "required": false
            },
            {
              "name": "Intro_TabInst5",
              "text": "To test your tab setting, you should see a new browser tab called 'Tab Test' after you hit CONTINUE. ",
              "type": "para",
              "required": false
            }
          ]
        }
      ]
    },
    {
      "title": "Test Pop Up",
      "pages": [
        {
          "title": "Testing Tabs",
          "last_page": false,
          "elements": [
            {
              "name": "Intro_TabTest_Q",
              "text": "Do you see the new tab called 'Test Tab'?",
              "type": "multiple_choice",
              "choices": [
                "True",
                "False"
              ],
              "required": true
            },
            {
              "name": "Intro_TabTest2",
              "text": "If you do not see the new tab, please try to allow popups in your web browser. How you do this will vary depending on which browser you use. For example, the Chrome browser provides Setting for Privacy and Security to allow popups.",
              "type": "para",
              "required": false
            },
            {
              "name": "Intro_TabTest3",
              "text": "In any case, you may proceed with the study by pressing 'CONTINUE'",
              "type": "para",
              "required": false
            },
            {
              "text": "Intro_TabTest3",
              "name": "IMapHelp",
              "type": "pop_up",
              "meta_data": {
                "url": "/static/instructions/apercu_tab_test_popup.html",
                "tab_name": "Help"
              },
              "required": false
            }
          ]
        }
      ]
    },
    {
      "title": "Maps",
      "pages": [
        {
          "title": "How to Read a Map",
          "last_page": false,
          "elements": [
            {
              "name": "Intro_Map1",
              "text": "When you press 'CONTINUE', a new tab will be opened in your browser. This tab will show helpful information about reading the maps in this study.",
              "type": "file-html",
              "meta_data": {
                "fileName": "apercu_help_tab.html"
              },
              "required": false
            },
            {
              "name": "Intro_Map2",
              "text": "When done reading, you should return to the COGLE Survey tab to continue the study. You can leave the Help tab open",
              "type": "para",
              "required": false
            }
          ]
        }
      ]
    },
    {
      "title": "Maps Pop Up",
      "pages": [
        {
          "title": "How to Read a Map",
          "last_page": false,
          "elements": [
            {
              "name": "Intro_HelpSummary1",
              "text": "When done reading, you should leave the Help tab open",
              "type": "file-html",
              "meta_data": {
                "fileName": "reading_maps.html"
              },
              "required": false
            },
            {
              "name": "Intro_HelpSummary2",
              "text": "Press 'CONTINUE' to proceed with the study",
              "type": "para",
              "required": false
            },
            {
              "text": "Intro_Help",
              "name": "IMapHelp",
              "type": "pop_up",
              "meta_data": {
                "url": "/static/instructions/reading_maps_popup.html",
                "tab_name": "Help"
              },
              "required": false
            }
          ]
        }
      ]
    },
    {
      "title": "Flying",
      "pages": [
        {
          "title": "The rules for flying these drones",
          "last_page": false,
          "elements": [
            {
              "name": "Intro_Flying",
              "text": "",
              "type": "file-html",
              "meta_data": {
                "fileName": "flying.html"
              },
              "required": false
            }
          ]
        }
      ]
    },
    {
      "title": "Packages",
      "pages": [
        {
          "title": "How packages are dropped",
          "last_page": false,
          "elements": [
            {
              "name": "Intro_Dropping",
              "text": "",
              "type": "file-html",
              "meta_data": {
                "fileName": "dropping.html"
              },
              "required": false
            }
          ]
        }
      ]
    },
    {
      "title": "Drone Decisions",
      "pages": [
        {
          "title": "How a drone decides what to do",
          "last_page": false,
          "elements": [
            {
              "name": "Intro_Penalty",
              "text": "",
              "type": "file-html",
              "meta_data": {
                "fileName": "penalty.html"
              },
              "required": false
            }
          ]
        }
      ]
    },
    {
      "title": "Craft Safety",
      "pages": [
        {
          "title": "Drone crashing into obstacles",
          "last_page": false,
          "elements": [
            {
              "name": "Intro_CrftSafety",
              "text": "",
              "type": "file-html",
              "meta_data": {
                "fileName": "craft_safety.html"
              },
              "required": false
            }
          ]
        }
      ]
    },
    {
      "title": "Craft Route Length",
      "pages": [
        {
          "title": "Drone flying farther than needed\n",
          "last_page": false,
          "elements": [
            {
              "name": "Intro_CrftRtLen",
              "text": "",
              "type": "file-html",
              "meta_data": {
                "fileName": "craft_route_length.html"
              },
              "required": false
            }
          ]
        }
      ]
    },
    {
      "title": "Hiker Route to Package",
      "pages": [
        {
          "title": "Hiker having to walk too far",
          "last_page": false,
          "elements": [
            {
              "name": "Intro_HikRtLen",
              "text": "",
              "type": "file-html",
              "meta_data": {
                "fileName": "hiker_route_length.html"
              },
              "required": false
            }
          ]
        }
      ]
    },
    {
      "title": "Hiker Climbing",
      "pages": [
        {
          "title": "Hiker having to climb",
          "last_page": false,
          "elements": [
            {
              "name": "Intro_HikClimb",
              "text": "",
              "type": "file-html",
              "meta_data": {
                "fileName": "hiker_climbing.html"
              },
              "required": false
            }
          ]
        }
      ]
    },
    {
      "title": "Hiker River Crossing",
      "pages": [
        {
          "title": "Hiker having to cross water",
          "last_page": false,
          "elements": [
            {
              "name": "Intro_HikCross",
              "text": "",
              "type": "file-html",
              "meta_data": {
                "fileName": "hiker_crossing.html"
              },
              "required": false
            }
          ]
        }
      ]
    },
    {
      "title": "Hiker Line of Sight",
      "pages": [
        {
          "title": "Hiker not being able to see a package",
          "last_page": false,
          "elements": [
            {
              "name": "Intro_HikSight",
              "text": "",
              "type": "file-html",
              "meta_data": {
                "fileName": "hiker_sight.html"
              },
              "required": false
            }
          ]
        }
      ]
    },
    {
      "title": "Package Damage",
      "pages": [
        {
          "title": "Package being damaged during drop",
          "last_page": false,
          "elements": [
            {
              "name": "Intro_PkgDamage",
              "text": "",
              "type": "file-html",
              "meta_data": {
                "fileName": "package_damage.html"
              },
              "required": false
            }
          ]
        }
      ]
    },
    {
      "title": "Package Inaccessibility",
      "pages": [
        {
          "title": "Package being dropped out of reach",
          "last_page": false,
          "elements": [
            {
              "name": "Intro_PkgAccess",
              "text": "",
              "type": "file-html",
              "meta_data": {
                "fileName": "package_inaccessibility.html"
              },
              "required": false
            }
          ]
        }
      ]
    },
    {
      "title": "Penalties",
      "pages": [
        {
          "title": "Penalty Help Summary",
          "elements": [
            {
              "name": "Intro_Pen1",
              "text": "When you press 'CONTINUE', A Penalty Help tab will be opened in your browser.",
              "type": "file-html",
              "meta_data": {
                "fileName": "apercu_scores_tabs.html"
              },
              "required": false
            },
            {
              "name": "Intro_Pen2",
              "text": "This tab will show helpful information about the drones used in this study.",
              "type": "file-html",
              "meta_data": {
              },
              "required": false
            },
            {
              "name": "Intro_Pen3",
              "text": "When done reading, you should return to the COGLE Survey tab to continue the study. You can leave the Help tab open",
              "type": "para",
              "required": false
            }
          ]
        }
      ]
    },
    {
      "title": "Penalty Summary",
      "pages": [
        {
          "title": "Penalty Summary",
          "elements": [
            {
              "name": "Intro_Penalty1",
              "text": "When done reading, you should leave the Help tab open",
              "type": "file-html",
              "meta_data": {
                "fileName": "penalty_help.html"
              },
              "required": false
            },
            {
              "name": "Intro_Penalty2",
              "text": "Press 'CONTINUE' to proceed with the study",
              "type": "para",
              "required": false
            },
            {
              "text": "Intro_Penalties",
              "name": "Penalty3",
              "type": "pop_up",
              "meta_data": {
                "url": "/static/instructions/penalty_help_popup.html",
                "tab_name": "Penalties"
              },
              "required": false
            }
          ]
        }
      ]
    }
  ]
}