{
  "name": "P3 Trust",
  "info": {},
  "instruments": [
    {
      "title": "Please give us your feedback about these Drones you have been studying",
      "pages": [
        {
          "title": "",
          "last_page": false,
          "elements": [
            {
              "name": "P3EATRSTT",
              "text": "",
              "type": "file-html",
              "meta_data": {
                "fileName": "P3EA.html"
              },
              "required": false
            },
            {
              "name": "P3EATRST1TQ",
              "text": "What is your confidence in Drone 2:Peregrin? Do you have a feeling of trust in it?",
              "type": "multiple_choice",
              "choices": [
                "1 - I do not trust it at all",
                "2",
                "3",
                "4",
                "5",
                "6",
                "7 - I trust it completely"
              ],
              "required": true
            },
            {
              "name": "P3EATRSTT",
              "text": "",
              "type": "file-html",
              "meta_data": {
                "fileName": "P3EA.html"
              },
              "required": false
            },
            {
              "name": "P3EATRUST2PQ",
              "text": "Are the actions of Drone 2:Peregrin predictable? ",
              "type": "multiple_choice",
              "choices": [
                "1 - It is not at all predictable",
                "2",
                "3",
                "4",
                "5",
                "6",
                "7 - It is completely predictable"
              ],
              "required": true
            },
            {
              "name": "P3EATRSTT",
              "text": "",
              "type": "file-html",
              "meta_data": {
                "fileName": "P3EA.html"
              },
              "required": false
            },
            {
              "name": "P3EATRUST3SQ",
              "text": "Is Drone 2:Peregrin reliable? Do you think it is safe?",
              "type": "multiple_choice",
              "choices": [
                "1 - It is not at all safe",
                "2",
                "3",
                "4",
                "5",
                "6",
                "7 - It is completely safe"
              ],
              "required": true
            },
            {
              "name": "P3EATRSTT",
              "text": "",
              "type": "file-html",
              "meta_data": {
                "fileName": "P3EA.html"
              },
              "required": false
            },
            {
              "name": "P3EATRUST4EQ",
              "text": "Is Drone 2:Peregrin efficient at what it does?",
              "type": "multiple_choice",
              "choices": [
                "1 - It is not at all efficient",
                "2",
                "3",
                "4",
                "5",
                "6",
                "7 - It is completely efficient"
              ],
              "required": true
            }
          ]
        }
      ]
    }
  ]
}